7.352941176470588480e-02,5.200499999999999012e-01
4.317647058823529393e-01,-5.928133514986377861e-02
4.329411764705882182e-01,1.893002717391305545e-01
4.317647058823529393e-01,-6.055858310626704988e-02
4.317647058823529393e-01,1.858395776566756918e-01
4.299999999999999933e-01,-5.811388508891934812e-02
5.711764705882352855e-01,-6.764933058702360391e-02
8.211764705882352855e-01,-8.307217048710602292e-02
3.276470588235294024e-01,-7.064631956912028610e-01
3.182352941176470607e-01,-4.958179297597042900e-01
3.111764705882352766e-01,-2.820061436672968158e-01
4.041176470588235259e-01,-3.200964337700146212e-01
5.341176470588234748e-01,-3.698926211453744672e-01
7.311764705882353166e-01,-4.358155671761866357e-01
1.090000000000000080e+00,-5.278096330275229286e-01
1.258823529411764730e-01,1.503504672897197914e-01
1.429411764705882382e-01,1.610082304526749830e-01
1.623529411764705888e-01,1.931385869565216407e-01
1.894117647058823628e-01,2.267663043478260754e-01
2.176470588235294157e-01,2.668243243243242357e-01
2.582352941176470629e-01,3.187784738041004040e-01
2.564705882352941169e-01,1.509891055045871067e-01
2.500000000000000000e-01,-1.549999999999995826e-02
2.805882352941176383e-01,7.826257861635221857e-02
3.329411764705882404e-01,1.599602473498233923e-01
4.299999999999999933e-01,1.790954172366621133e-01
4.288235294117647145e-01,-6.631515775034291238e-02
4.258823529411764897e-01,-3.311809392265192553e-01
4.264705882352941013e-01,-8.337931034482759518e-02
4.258823529411764897e-01,-3.311809392265192553e-01
4.264705882352941013e-01,-8.337931034482759518e-02
4.282352941176470473e-01,-3.288203983516483353e-01
4.264705882352941013e-01,-8.337931034482759518e-02
4.299999999999999933e-01,1.597725718194253908e-01
5.741176470588235103e-01,1.821401127049180335e-01
8.023529411764706021e-01,2.127611803519060540e-01
1.224117647058823533e+00,2.597609322441134516e-01
1.780588235294117583e+00,3.293401057152296474e-01
6.117647058823529743e-02,4.750000000000000888e-01
0.000000000000000000e+00,-1.000000000000000000e+00
1.770588235294117685e-01,-3.629983388704318692e-01
2.088235294117647134e-01,-3.983978873239436558e-01
2.576470588235293957e-01,-4.398544520547945647e-01
3.211764705882352855e-01,-4.918040293040293331e-01
3.170588235294117818e-01,-2.779800556586271565e-01
4.023529411764705799e-01,-3.170504385964912908e-01
5.364705882352941435e-01,-3.654947916666666519e-01
7.500000000000000000e-01,-4.332549019607843110e-01
7.911764705882352589e-01,-7.565845724907063197e-01
0.000000000000000000e+00,-1.000000000000000000e+00
7.194117647058823062e-01,-5.588154129190515684e-01
6.929411764705882826e-01,-2.381685059422750106e-01
6.958823529411765074e-01,9.664518174133562844e-02
1.411764705882352922e-01,-5.077604166666666030e-01
1.452941176470588236e-01,-6.477479757085020662e-01
1.488235294117647156e-01,-7.881422924901185789e-01
1.429411764705882382e-01,-6.500771604938271331e-01
1.488235294117647156e-01,-7.881422924901185789e-01
1.429411764705882382e-01,-6.500771604938271331e-01
1.494117647058823550e-01,-7.902805118110236560e-01
1.429411764705882382e-01,-6.500771604938271331e-01
1.494117647058823550e-01,-7.902805118110236560e-01
1.441176470588235170e-01,-6.488520408163265252e-01
1.476470588235294090e-01,-7.914093625498007656e-01
1.776470588235294079e-01,-8.588162251655628854e-01
1.723529411764705976e-01,-7.074018771331057609e-01
0.000000000000000000e+00,-1.000000000000000000e+00
8.705882352941175795e-02,-1.949746621621620823e-01
9.764705882352940625e-02,-2.084713855421687079e-01
1.123529411764705860e-01,-2.239856020942407877e-01
1.300000000000000044e-01,-2.408371040723982226e-01
1.505882352941176339e-01,-2.604736328125000222e-01
1.782352941176470473e-01,-2.848803630363037076e-01
2.141176470588235237e-01,-3.123969780219779668e-01
2.611764705882352877e-01,-3.462274774774775077e-01
2.576470588235293957e-01,-1.551940639269405731e-01
3.200000000000000067e-01,-1.746208639705881804e-01
4.105882352941176427e-01,-1.991941260744984898e-01
4.094117647058823639e-01,4.278915229885060789e-02
5.511764705882352677e-01,4.657817502668093468e-02
7.558823529411764497e-01,5.144941634241240180e-02
6.588235294117647523e-02,-8.152901785714283811e-02
6.705882352941176794e-02,1.655701754385963120e-02
9.117647058823528938e-02,-1.587903225806451823e-01
9.058823529411764996e-02,-7.252435064935058850e-02
8.999999999999999667e-02,1.164215686274516770e-02
0.000000000000000000e+00,-1.000000000000000000e+00
1.770588235294117685e-01,1.123546511627906419e-01
2.135294117647058842e-01,1.200241046831955760e-01
2.611764705882352877e-01,1.317708333333333925e-01
3.247058823529411775e-01,1.463994565217390242e-01
4.147058823529412019e-01,1.630585106382977933e-01
5.564705882352941613e-01,1.856897463002114002e-01
5.482352941176470429e-01,-9.447424892703859545e-02
5.552941176470588269e-01,-3.770060911016949179e-01
7.817647058823529171e-01,-4.465904815650865167e-01
1.176470588235294157e+00,-5.459843749999999662e-01
8.176470588235294767e-02,3.479316546762589724e-01
0.000000000000000000e+00,-1.000000000000000000e+00
0.000000000000000000e+00,-1.000000000000000000e+00
1.223529411764705949e-01,3.770132211538461675e-01
0.000000000000000000e+00,-1.000000000000000000e+00
0.000000000000000000e+00,-1.000000000000000000e+00
1.199999999999999956e-01,2.188419117647057988e-01
0.000000000000000000e+00,-1.000000000000000000e+00
0.000000000000000000e+00,-1.000000000000000000e+00
6.470588235294118251e-02,2.338636363636363846e-01
9.294117647058823539e-02,1.772547468354430666e-01
0.000000000000000000e+00,-1.000000000000000000e+00
1.164705882352941174e-01,8.486742424242426086e-01
1.135294117647058787e-01,7.228303108808291633e-01
1.105882352941176539e-01,5.950132978723403632e-01
0.000000000000000000e+00,-1.000000000000000000e+00
1.170588235294117707e-01,7.204773869346734472e-01
1.158823529411764641e-01,5.938451776649746883e-01
0.000000000000000000e+00,-1.000000000000000000e+00
0.000000000000000000e+00,-1.000000000000000000e+00
0.000000000000000000e+00,-1.000000000000000000e+00
0.000000000000000000e+00,-1.000000000000000000e+00
0.000000000000000000e+00,-1.000000000000000000e+00
7.882352941176470895e-02,-6.203824626865671599e-01
0.000000000000000000e+00,-1.000000000000000000e+00
0.000000000000000000e+00,-1.000000000000000000e+00
6.294117647058823650e-02,9.758177570093458097e-01
1.429411764705882382e-01,-6.488425925925925819e-01
0.000000000000000000e+00,-1.000000000000000000e+00
7.352941176470588480e-02,4.989000000000001211e-01
0.000000000000000000e+00,-1.000000000000000000e+00
0.000000000000000000e+00,-1.000000000000000000e+00
0.000000000000000000e+00,-1.000000000000000000e+00
0.000000000000000000e+00,-1.000000000000000000e+00
1.352941176470588147e-01,-5.316576086956521507e-01
0.000000000000000000e+00,-1.000000000000000000e+00
0.000000000000000000e+00,-1.000000000000000000e+00
7.000000000000000666e-02,-3.695378151260504396e-01
0.000000000000000000e+00,-1.000000000000000000e+00
7.000000000000000666e-02,-3.695378151260504396e-01
0.000000000000000000e+00,-1.000000000000000000e+00
1.217647058823529416e-01,3.429951690821253507e-02
1.576470588235294179e-01,3.729011194029863141e-02
1.994117647058823439e-01,3.930678466076686917e-02
2.117647058823529382e-01,4.039930555555559799e-02
2.829411764705882515e-01,4.433471933471944126e-02
2.988235294117647101e-01,4.548474409448810540e-02
4.282352941176470473e-01,5.104739010989023384e-02
7.041176470588235148e-01,6.182644110275692384e-02
1.970588235294117585e-01,1.086194029850746645e-01
2.252941176470588114e-01,1.378916449086162732e-01
2.717647058823529638e-01,1.729031385281385447e-01
2.694117647058823506e-01,1.023471615720472627e-03
3.282352941176470695e-01,2.457437275985663305e-02
4.111764705882353099e-01,4.608369098712450374e-02
5.064705882352941169e-01,1.084277003484319657e-01
4.747058823529411997e-01,-8.726765799256508416e-02
5.064705882352941169e-01,1.068307200929150547e-01
4.799999999999999822e-01,-8.465839460784307935e-02
5.135294117647059009e-01,1.078035509736541275e-01
4.747058823529411997e-01,-8.101765799256510636e-02
6.411764705882353477e-01,-9.649082568807343385e-02
6.500000000000000222e-01,2.047285067873303444e-01
9.288235294117647145e-01,2.454480683977200428e-01
1.442352941176470615e+00,2.996533442088091803e-01
0.000000000000000000e+00,-1.000000000000000000e+00
0.000000000000000000e+00,-1.000000000000000000e+00
1.323529411764705899e-01,3.555277777777778869e-01
1.305882352941176439e-01,3.064752252252251896e-01
1.270588235294117518e-01,6.125578703703693506e-02
1.282352941176470584e-01,-4.701834862385290137e-03
1.270588235294117518e-01,-8.697916666666660745e-02
1.505882352941176339e-01,-9.536132812499997780e-02
1.776470588235294079e-01,-1.050082781456953551e-01
2.170588235294117763e-01,-1.171578590785907759e-01
2.670588235294117374e-01,-1.307131057268723362e-01
3.358823529411764652e-01,-1.485113835376532521e-01
4.447058823529411731e-01,-1.723379629629629983e-01
4.376470588235293890e-01,8.676915322580636136e-02
5.894117647058823017e-01,9.825349301397201529e-02
8.647058823529412130e-01,1.156972789115644495e-01
5.588235294117647328e-02,-1.701973684210527082e-01
0.000000000000000000e+00,-1.000000000000000000e+00
0.000000000000000000e+00,-1.000000000000000000e+00
2.011764705882352899e-01,-1.082419590643274310e-01
5.352941176470588092e-02,4.838598901098900562e-01
2.164705882352941091e-01,-4.760190217391304657e-01
2.176470588235294157e-01,-5.526013513513513553e-01
1.964705882352941191e-01,-2.045845808383233155e-01
2.529411764705882248e-01,-2.574127906976744207e-01
7.758823529411764675e-01,-4.310130780894617653e-01
7.705882352941176849e-01,-2.900524809160305306e-01
0.000000000000000000e+00,-1.000000000000000000e+00
0.000000000000000000e+00,-1.000000000000000000e+00
0.000000000000000000e+00,-1.000000000000000000e+00
0.000000000000000000e+00,-1.000000000000000000e+00
0.000000000000000000e+00,-1.000000000000000000e+00
0.000000000000000000e+00,-1.000000000000000000e+00
0.000000000000000000e+00,-1.000000000000000000e+00
0.000000000000000000e+00,-1.000000000000000000e+00
1.458823529411764630e-01,-3.297127016129032251e-01
1.435294117647058776e-01,-4.412653688524590390e-01
1.641176470588235348e-01,-4.553763440860214562e-01
1.635294117647058953e-01,-5.703462230215827766e-01
1.641176470588235348e-01,-4.562724014336917433e-01
1.629411764705882282e-01,-3.393501805054152110e-01
1.876470588235294168e-01,-3.516849529780563532e-01
2.147058823529411631e-01,-3.642294520547945114e-01
2.523529411764706132e-01,-3.827360139860139787e-01
2.364705882352941269e-01,-4.938899253731343642e-01
2.523529411764706132e-01,-3.827360139860139787e-01
2.976470588235294312e-01,-4.034955533596837896e-01
3.241176470588235103e-01,-3.632940108892921405e-01
3.611764705882353210e-01,-3.082654723127036256e-01
4.652941176470588025e-01,-3.515881795195954229e-01
6.317647058823528949e-01,-4.104690409683426910e-01
9.423529411764706154e-01,-4.996722846441947752e-01
9.176470588235293713e-01,-1.373677884615384093e-01
1.170588235294117707e-01,-2.215138190954774045e-01
1.064705882352941224e-01,-4.015883977900558399e-02
1.017647058823529377e-01,9.736271676300578548e-02
1.199999999999999956e-01,1.031249999999999112e-01
1.382352941176470673e-01,1.112234042553192914e-01
1.647058823529411742e-01,1.182366071428571086e-01
1.917647058823529482e-01,1.273581288343559326e-01
2.335294117647058743e-01,1.389798488664986120e-01
2.847058823529411975e-01,1.522210743801652999e-01
3.594117647058823750e-01,1.686886252045827206e-01
4.705882352941176405e-01,1.892109374999999538e-01
6.364705882352941213e-01,2.183341035120147655e-01
6.558823529411764719e-01,5.219618834080717029e-01
6.364705882352941213e-01,2.183341035120147655e-01
9.117647058823529216e-01,2.581733870967741762e-01
1.405882352941176361e+00,3.154262552301254630e-01
1.505882352941176339e-01,8.177001953125000444e-01
1.458823529411764630e-01,6.746219758064515570e-01
1.447058823529411842e-01,5.338922764227642670e-01
1.405882352941176527e-01,3.922594142259414607e-01
1.394117647058823461e-01,2.500791139240505778e-01
1.658823529411764808e-01,2.694370567375885539e-01
1.935294117647058942e-01,2.918693009118542570e-01
2.347058823529411808e-01,3.204730576441101597e-01
2.347058823529411808e-01,1.355106516290727203e-01
2.917647058823529260e-01,1.497353830645162809e-01
0.000000000000000000e+00,-1.000000000000000000e+00
0.000000000000000000e+00,-1.000000000000000000e+00
0.000000000000000000e+00,-1.000000000000000000e+00
0.000000000000000000e+00,-1.000000000000000000e+00
0.000000000000000000e+00,-1.000000000000000000e+00
0.000000000000000000e+00,-1.000000000000000000e+00
0.000000000000000000e+00,-1.000000000000000000e+00
7.470588235294117752e-02,-9.843011811023621993e-01
4.064705882352941391e-01,-8.225217076700434005e-01
3.852941176470588425e-01,-9.396564885496183628e-01
5.558823529411764941e-01,-6.920105820105819650e-01
5.358823529411764763e-01,-4.091931942919868614e-01
7.458823529411764408e-01,-4.822456624605677700e-01
1.110588235294117654e+00,-5.861030190677966045e-01
1.505882352941176339e-01,-5.150878906250000444e-01
1.988235294117647045e-01,-5.213202662721893033e-01
2.211764705882353077e-01,-5.283244680851064690e-01
2.282352941176470640e-01,-4.163981958762886793e-01
2.641176470588235126e-01,-4.323496659242761497e-01
2.911764705882353144e-01,-4.159974747474747270e-01
2.188235294117646945e-01,-4.040658602150537515e-01
2.711764705882352966e-01,-4.481290672451192503e-01
2.717647058823529638e-01,-2.634334415584416167e-01
2.711764705882352966e-01,-4.533486984815617848e-01
2.688235294117646834e-01,-2.621307439824944741e-01
3.688235294117647167e-01,-3.102970494417862657e-01
2.676470588235294046e-01,-2.633104395604395354e-01
2.694117647058823506e-01,-4.519787117903930618e-01
2.664705882352941257e-01,-2.622240618101545628e-01
2.711764705882352966e-01,-4.481290672451192503e-01
2.717647058823529638e-01,-2.634334415584416167e-01
2.711764705882352966e-01,-4.481290672451192503e-01
7.882352941176470895e-02,6.374999999999999556e-01
7.823529411764705566e-02,5.257518796992481924e-01
5.088235294117646745e-01,8.279190751445084651e-01
4.970588235294117752e-01,5.482840236686390423e-01
4.782352941176470362e-01,2.876153136531365284e-01
4.252941176470588225e-01,1.319156293222683018e-01
5.829411764705881849e-01,1.584195257315843541e-01
1.688235294117647056e-01,5.239329268292682862e-01
1.252941176470588336e-01,2.522887323943661109e-01
1.447058823529411842e-01,2.784552845528456277e-01
1.664705882352941202e-01,3.239399293286218118e-01
1.641176470588235348e-01,1.892921146953405742e-01
1.658823529411764808e-01,6.345301418439719399e-02
1.882352941176470562e-01,8.900390624999987566e-02
2.300000000000000100e-01,1.270780051150894874e-01
2.576470588235293957e-01,1.464326484018265706e-01
2.564705882352941169e-01,6.262901376146801091e-02
2.782352941176470806e-01,7.584566596194486365e-02
3.117647058823529438e-01,8.567216981132075304e-02
3.311764705882352944e-01,1.608681172291297479e-01
3.529411764705882582e-01,2.293437499999999574e-01
3.317647058823529616e-01,1.415447695035461084e-01
5.317647058823529171e-01,1.750069137168142053e-01
9.041176470588235814e-01,2.241704619388418251e-01
1.157647058823529473e+00,2.500254065040650175e-01
6.776470588235293802e-01,3.508680555555554470e-01
6.352941176470587870e-01,9.907407407407409217e-02
8.823529411764705621e-01,1.693083333333333940e-01
1.347058823529411753e-01,5.014737991266375872e-01
1.323529411764705899e-01,3.732500000000000817e-01
1.341176470588235359e-01,4.998355263157896466e-01
1.541176470588235259e-01,5.567509541984732024e-01
1.735294117647058765e-01,6.073305084745761473e-01
7.764705882352941624e-02,1.682765151515153157e-01
0.000000000000000000e+00,-1.000000000000000000e+00
0.000000000000000000e+00,-1.000000000000000000e+00
0.000000000000000000e+00,-1.000000000000000000e+00
0.000000000000000000e+00,-1.000000000000000000e+00
0.000000000000000000e+00,-1.000000000000000000e+00
0.000000000000000000e+00,-1.000000000000000000e+00
0.000000000000000000e+00,-1.000000000000000000e+00
0.000000000000000000e+00,-1.000000000000000000e+00
0.000000000000000000e+00,-1.000000000000000000e+00
0.000000000000000000e+00,-1.000000000000000000e+00
5.235294117647058820e-02,-8.252106741573033144e-01
5.705882352941176600e-02,-8.635953608247421975e-01
6.235294117647059015e-02,-9.062500000000000000e-01
7.058823529411764608e-02,-9.515104166666666918e-01
6.941176470588235337e-02,-8.568326271186440524e-01
7.117647058823529937e-02,-9.511880165289255951e-01
0.000000000000000000e+00,-1.000000000000000000e+00
0.000000000000000000e+00,-1.000000000000000000e+00
0.000000000000000000e+00,-1.000000000000000000e+00
0.000000000000000000e+00,-1.000000000000000000e+00
0.000000000000000000e+00,-1.000000000000000000e+00
0.000000000000000000e+00,-1.000000000000000000e+00
0.000000000000000000e+00,-1.000000000000000000e+00
0.000000000000000000e+00,-1.000000000000000000e+00
0.000000000000000000e+00,-1.000000000000000000e+00
0.000000000000000000e+00,-1.000000000000000000e+00
0.000000000000000000e+00,-1.000000000000000000e+00
0.000000000000000000e+00,-1.000000000000000000e+00
5.794117647058824039e-01,3.287373096446699616e-01
0.000000000000000000e+00,-1.000000000000000000e+00
0.000000000000000000e+00,-1.000000000000000000e+00
0.000000000000000000e+00,-1.000000000000000000e+00
0.000000000000000000e+00,-1.000000000000000000e+00
0.000000000000000000e+00,-1.000000000000000000e+00
0.000000000000000000e+00,-1.000000000000000000e+00
0.000000000000000000e+00,-1.000000000000000000e+00
0.000000000000000000e+00,-1.000000000000000000e+00
6.870588235294117219e-01,-7.582726883561643483e-01
6.676470588235293713e-01,-5.760407488986784008e-01
6.576470588235293624e-01,-4.079718246869410425e-01
1.204117647058823515e+00,-5.511571812408402327e-01
1.168235294117647038e+00,-2.701944864048339001e-01
8.411764705882353310e-02,8.404720279720279130e-01
0.000000000000000000e+00,-1.000000000000000000e+00
8.117647058823529438e-02,7.961050724637679377e-01
0.000000000000000000e+00,-1.000000000000000000e+00
8.882352941176470396e-02,9.479718543046355972e-01
0.000000000000000000e+00,-1.000000000000000000e+00
8.647058823529411853e-02,8.985119047619047894e-01
0.000000000000000000e+00,-1.000000000000000000e+00
1.170588235294117707e-01,1.687185929648240545e-01
0.000000000000000000e+00,-1.000000000000000000e+00
7.294117647058823151e-02,5.982358870967741105e-01
0.000000000000000000e+00,-1.000000000000000000e+00
0.000000000000000000e+00,-1.000000000000000000e+00
0.000000000000000000e+00,-1.000000000000000000e+00
0.000000000000000000e+00,-1.000000000000000000e+00
0.000000000000000000e+00,-1.000000000000000000e+00
0.000000000000000000e+00,-1.000000000000000000e+00
0.000000000000000000e+00,-1.000000000000000000e+00
0.000000000000000000e+00,-1.000000000000000000e+00
0.000000000000000000e+00,-1.000000000000000000e+00
7.176470588235293879e-02,-5.899077868852459217e-01
6.411764705882352922e-02,-1.995412844036696942e-01
0.000000000000000000e+00,-1.000000000000000000e+00
0.000000000000000000e+00,-1.000000000000000000e+00
1.205882352941176489e-01,-8.460365853658535773e-02
0.000000000000000000e+00,-1.000000000000000000e+00
0.000000000000000000e+00,-1.000000000000000000e+00
0.000000000000000000e+00,-1.000000000000000000e+00
0.000000000000000000e+00,-1.000000000000000000e+00
0.000000000000000000e+00,-1.000000000000000000e+00
0.000000000000000000e+00,-1.000000000000000000e+00
1.570588235294117785e-01,7.636938202247189889e-01
1.505882352941176339e-01,6.481445312500000444e-01
1.499999999999999944e-01,4.916911764705882426e-01
1.482352941176470484e-01,3.374751984126984627e-01
1.752941176470588225e-01,3.652894295302013816e-01
1.729411764705882371e-01,1.961947278911564396e-01
2.076470588235294068e-01,2.137039660056658796e-01
2.517647058823529460e-01,2.342873831775702520e-01
3.135294117647058898e-01,2.588180112570355185e-01
3.988235294117646879e-01,2.898322271386430948e-01
3.941176470588235170e-01,5.327425373134331288e-02
5.141176470588235681e-01,5.845251716247146234e-02
7.082352941176470740e-01,6.667358803986700444e-02
8.529411764705882582e-02,3.593103448275862810e-01
8.529411764705882582e-02,2.625431034482759163e-01
8.352941176470587981e-02,1.925616197183097622e-01
8.176470588235294767e-02,1.234712230215826434e-01
8.058823529411764108e-02,3.052007299270065310e-02
8.117647058823529438e-02,1.209239130434782705e-01
8.117647058823529438e-02,2.472826086956514402e-02
7.941176470588234837e-02,1.214351851851851460e-01
8.058823529411764108e-02,5.246350364963570101e-03
8.058823529411764108e-02,1.013229927007297526e-01
8.117647058823529438e-02,1.816123188405804889e-02
8.058823529411764108e-02,-6.218065693430663288e-02
8.117647058823529438e-02,1.816123188405804889e-02
8.294117647058824039e-02,1.055851063829786884e-01
8.176470588235294767e-02,2.165917266187049606e-01
8.470588235294117252e-02,3.844618055555555358e-01
9.235294117647058210e-02,4.253980891719746360e-01
1.017647058823529377e-01,4.410404624277455277e-01
1.105882352941176539e-01,4.819481382978723083e-01
5.705882352941176600e-02,-1.177835051546392009e-01
0.000000000000000000e+00,-1.000000000000000000e+00
0.000000000000000000e+00,-1.000000000000000000e+00
0.000000000000000000e+00,-1.000000000000000000e+00
5.235294117647058820e-02,-7.245084269662921406e-01
5.764705882352941235e-02,-7.595663265306122902e-01
6.470588235294118251e-02,-7.986363636363635887e-01
7.235294117647059209e-02,-8.435975609756097837e-01
7.941176470588234837e-02,-8.926388888888888706e-01
9.176470588235294268e-02,-9.450320512820512553e-01
0.000000000000000000e+00,-1.000000000000000000e+00
0.000000000000000000e+00,-1.000000000000000000e+00
1.229411764705882343e-01,8.302332535885166287e-01
1.170588235294117707e-01,7.017273869346734028e-01
1.158823529411764641e-01,5.750951776649746439e-01
1.152941176470588247e-01,4.501275510204081343e-01
1.123529411764705860e-01,3.238547120418848735e-01
1.100000000000000006e-01,1.917780748663102663e-01
1.100000000000000006e-01,6.447192513368982247e-02
1.088235294117647078e-01,1.913513513513513953e-01
1.088235294117647078e-01,6.594594594594593850e-02
1.111764705882352933e-01,-6.183862433862441499e-02
1.264705882352941124e-01,-6.636627906976744207e-02
1.476470588235294090e-01,-7.313247011952195287e-02
1.758823529411764619e-01,-8.053929765886280734e-02
1.735294117647058765e-01,-2.391313559322034710e-01
2.099999999999999922e-01,-2.635854341736695305e-01
2.547058823529411709e-01,-2.931293302540416423e-01
3.200000000000000067e-01,-3.276424632352941124e-01
4.111764705882353099e-01,-3.707618025751073798e-01
5.441176470588234837e-01,-4.277837837837837887e-01
7.576470588235294512e-01,-5.040906444099378936e-01
1.137058823529411677e+00,-6.146598551474391492e-01
1.092941176470588305e+00,-2.240783100107642811e-01
0.000000000000000000e+00,-1.000000000000000000e+00
0.000000000000000000e+00,-1.000000000000000000e+00
0.000000000000000000e+00,-1.000000000000000000e+00
0.000000000000000000e+00,-1.000000000000000000e+00
0.000000000000000000e+00,-1.000000000000000000e+00
0.000000000000000000e+00,-1.000000000000000000e+00
0.000000000000000000e+00,-1.000000000000000000e+00
8.352941176470587981e-02,-1.755281690140846340e-01
8.294117647058824039e-02,-6.724290780141850554e-02
8.352941176470587981e-02,-1.755281690140846340e-01
8.235294117647058709e-02,-2.821875000000000355e-01
8.352941176470587981e-02,-1.744718309859154548e-01
8.235294117647058709e-02,-2.821875000000000355e-01
8.529411764705882582e-02,-3.914655172413793460e-01
8.176470588235294767e-02,-2.830485611510791255e-01
8.470588235294117252e-02,-3.937500000000000444e-01
8.411764705882353310e-02,-2.853146853146852902e-01
9.705882352941176683e-02,-3.071969696969697461e-01
1.100000000000000006e-01,-3.276403743315507988e-01
1.247058823529411803e-01,-3.528007075471697451e-01
1.452941176470588236e-01,-3.807186234817814263e-01
1.705882352941176516e-01,-4.126939655172414678e-01
2.041176470588235425e-01,-4.506664265129682878e-01
2.011764705882352899e-01,-2.821089181286550174e-01
2.429411764705882437e-01,-3.116828087167069494e-01
3.017647058823529349e-01,-3.473318713450292972e-01
3.817647058823529505e-01,-3.908705701078581951e-01
5.035294117647058920e-01,-4.489412967289719836e-01
6.999999999999999556e-01,-5.281512605042016917e-01
6.776470588235293802e-01,-1.887098524305554914e-01
1.016470588235294015e+00,-2.341977719907407662e-01
0.000000000000000000e+00,-1.000000000000000000e+00
0.000000000000000000e+00,-1.000000000000000000e+00
0.000000000000000000e+00,-1.000000000000000000e+00
0.000000000000000000e+00,-1.000000000000000000e+00
0.000000000000000000e+00,-1.000000000000000000e+00
0.000000000000000000e+00,-1.000000000000000000e+00
0.000000000000000000e+00,-1.000000000000000000e+00
9.823529411764705954e-02,5.110404191616766401e-01
1.011764705882352983e-01,6.293968023255813726e-01
0.000000000000000000e+00,-1.000000000000000000e+00
1.011764705882352983e-01,6.293968023255813726e-01
0.000000000000000000e+00,-1.000000000000000000e+00
9.823529411764705954e-02,5.872005988023951684e-01
0.000000000000000000e+00,-1.000000000000000000e+00
1.000000000000000056e-01,5.741544117647059409e-01
0.000000000000000000e+00,-1.000000000000000000e+00
1.011764705882352983e-01,6.293968023255813726e-01
1.170588235294117707e-01,6.706030150753767849e-01
1.358823529411764819e-01,7.180194805194806129e-01
1.388235294117647067e-01,8.530985169491525077e-01
1.623529411764705888e-01,9.178442028985507317e-01
1.594117647058823639e-01,7.723708487084870455e-01
1.552941176470588325e-01,6.274147727272727515e-01
1.829411764705882459e-01,6.785369774919616237e-01
1.782352941176470473e-01,5.213077557755776414e-01
0.000000000000000000e+00,-1.000000000000000000e+00
0.000000000000000000e+00,-1.000000000000000000e+00
0.000000000000000000e+00,-1.000000000000000000e+00
0.000000000000000000e+00,-1.000000000000000000e+00
0.000000000000000000e+00,-1.000000000000000000e+00
0.000000000000000000e+00,-1.000000000000000000e+00
0.000000000000000000e+00,-1.000000000000000000e+00
0.000000000000000000e+00,-1.000000000000000000e+00
0.000000000000000000e+00,-1.000000000000000000e+00
0.000000000000000000e+00,-1.000000000000000000e+00
0.000000000000000000e+00,-1.000000000000000000e+00
0.000000000000000000e+00,-1.000000000000000000e+00
0.000000000000000000e+00,-1.000000000000000000e+00
0.000000000000000000e+00,-1.000000000000000000e+00
0.000000000000000000e+00,-1.000000000000000000e+00
0.000000000000000000e+00,-1.000000000000000000e+00
1.217647058823529416e-01,4.838768115942029269e-01
1.205882352941176489e-01,3.516158536585365368e-01
1.405882352941176527e-01,3.758368200836819106e-01
1.376470588235294001e-01,2.369925213675212472e-01
1.617647058823529493e-01,2.537954545454543798e-01
1.911764705882352811e-01,2.765769230769230536e-01
2.323529411764705954e-01,3.024050632911392533e-01
2.311764705882352888e-01,1.039599236641222113e-01
2.852941176470588092e-01,1.150128865979380688e-01
3.729411764705882204e-01,1.285784700315457663e-01
4.899999999999999911e-01,1.460009003601441258e-01
6.647058823529411464e-01,1.679756637168141609e-01
9.594117647058824083e-01,1.977084610668300435e-01
1.509411764705882453e+00,2.439497272018704699e-01
1.757058823529411784e+00,3.144563943756275570e-01
1.751764705882352890e+00,-2.925516286098053254e-01
1.749411764705882444e+00,3.056237390719569458e-01
1.755882352941176450e+00,-2.873450586264656437e-01
1.750000000000000000e+00,3.111281512605041932e-01
1.751764705882352890e+00,-2.925516286098053254e-01
1.757058823529411784e+00,3.144563943756275570e-01
1.748823529411764666e+00,-2.786158762193070570e-01
1.751176470588235334e+00,3.250125965737320488e-01
1.748823529411764666e+00,-2.786158762193070570e-01
1.751176470588235334e+00,3.551079106483037151e-01
1.747058823529411775e+00,-2.488110269360268578e-01
1.751176470588235334e+00,3.551079106483037151e-01
1.747058823529411775e+00,-2.488110269360268578e-01
1.751176470588235334e+00,3.551079106483037151e-01
1.746470588235294219e+00,-2.541112327382957226e-01
1.751176470588235334e+00,3.551079106483037151e-01
1.747058823529411775e+00,-2.488110269360268578e-01
1.764117647058823568e+00,3.583798766255417156e-01
8.364705882352940769e-01,5.040304149085794716e-01
7.976470588235293757e-01,-3.732070427728613193e-01
8.376470588235294112e-01,4.835323033707865648e-01
7.976470588235293757e-01,-3.732070427728613193e-01
8.376470588235294112e-01,4.835323033707865648e-01
7.947058823529411509e-01,-3.593865655070318521e-01
8.364705882352940769e-01,5.040304149085794716e-01
7.929411764705882604e-01,-3.526891691394659079e-01
8.417647058823529704e-01,5.116788958770090989e-01
7.900000000000000355e-01,-3.462071854058079712e-01
8.417647058823529704e-01,5.116788958770090989e-01
7.882352941176470340e-01,-3.395009328358209455e-01
8.423529411764706376e-01,5.182655377094973481e-01
7.882352941176470340e-01,-3.395009328358209455e-01
0.000000000000000000e+00,-1.000000000000000000e+00
0.000000000000000000e+00,-1.000000000000000000e+00
0.000000000000000000e+00,-1.000000000000000000e+00
0.000000000000000000e+00,-1.000000000000000000e+00
0.000000000000000000e+00,-1.000000000000000000e+00
0.000000000000000000e+00,-1.000000000000000000e+00
7.335294117647058743e-01,4.395499198075381031e-01
8.517647058823529793e-01,-4.610799378453038777e-01
0.000000000000000000e+00,-1.000000000000000000e+00
0.000000000000000000e+00,-1.000000000000000000e+00
0.000000000000000000e+00,-1.000000000000000000e+00
0.000000000000000000e+00,-1.000000000000000000e+00
0.000000000000000000e+00,-1.000000000000000000e+00
0.000000000000000000e+00,-1.000000000000000000e+00
0.000000000000000000e+00,-1.000000000000000000e+00
0.000000000000000000e+00,-1.000000000000000000e+00
0.000000000000000000e+00,-1.000000000000000000e+00
0.000000000000000000e+00,-1.000000000000000000e+00
0.000000000000000000e+00,-1.000000000000000000e+00
0.000000000000000000e+00,-1.000000000000000000e+00
0.000000000000000000e+00,-1.000000000000000000e+00
6.352941176470587592e-02,-3.745370370370370017e-01
6.476470588235294645e-01,-6.452883742052679672e-01
0.000000000000000000e+00,-1.000000000000000000e+00
0.000000000000000000e+00,-1.000000000000000000e+00
0.000000000000000000e+00,-1.000000000000000000e+00
0.000000000000000000e+00,-1.000000000000000000e+00
0.000000000000000000e+00,-1.000000000000000000e+00
0.000000000000000000e+00,-1.000000000000000000e+00
0.000000000000000000e+00,-1.000000000000000000e+00
0.000000000000000000e+00,-1.000000000000000000e+00
0.000000000000000000e+00,-1.000000000000000000e+00
0.000000000000000000e+00,-1.000000000000000000e+00
0.000000000000000000e+00,-1.000000000000000000e+00
0.000000000000000000e+00,-1.000000000000000000e+00
7.764705882352941624e-02,1.060606060606050782e-02
7.411764705882352422e-02,-8.402777777777781232e-02
7.647058823529412352e-02,-1.881249999999999867e-01
7.705882352941176294e-02,-8.707061068702282025e-02
7.764705882352941624e-02,1.060606060606050782e-02
1.311764705882352833e-01,-3.446188340807174733e-01
1.770588235294117685e-01,-3.830149501661129774e-01
1.788235294117647145e-01,-2.221217105263157965e-01
0.000000000000000000e+00,-1.000000000000000000e+00
0.000000000000000000e+00,-1.000000000000000000e+00
0.000000000000000000e+00,-1.000000000000000000e+00
0.000000000000000000e+00,-1.000000000000000000e+00
0.000000000000000000e+00,-1.000000000000000000e+00
1.176470588235294101e-01,-7.862500000000005596e-02
1.741176470588235159e-01,-1.398648648648649351e-01
0.000000000000000000e+00,-1.000000000000000000e+00
0.000000000000000000e+00,-1.000000000000000000e+00
0.000000000000000000e+00,-1.000000000000000000e+00
0.000000000000000000e+00,-1.000000000000000000e+00
0.000000000000000000e+00,-1.000000000000000000e+00
0.000000000000000000e+00,-1.000000000000000000e+00
1.347058823529411753e-01,1.756277292576418070e-01
0.000000000000000000e+00,-1.000000000000000000e+00
1.347058823529411753e-01,1.756277292576418070e-01
0.000000000000000000e+00,-1.000000000000000000e+00
0.000000000000000000e+00,-1.000000000000000000e+00
0.000000000000000000e+00,-1.000000000000000000e+00
0.000000000000000000e+00,-1.000000000000000000e+00
0.000000000000000000e+00,-1.000000000000000000e+00
2.017647058823529294e-01,7.267674927113703109e-01
2.735294117647059098e-01,-6.498655913978494958e-01
9.764705882352940625e-02,-1.409262048192770900e-01
0.000000000000000000e+00,-1.000000000000000000e+00
0.000000000000000000e+00,-1.000000000000000000e+00
0.000000000000000000e+00,-1.000000000000000000e+00
0.000000000000000000e+00,-1.000000000000000000e+00
0.000000000000000000e+00,-1.000000000000000000e+00
0.000000000000000000e+00,-1.000000000000000000e+00
1.417647058823529316e-01,1.771265560165975472e-01
0.000000000000000000e+00,-1.000000000000000000e+00
8.411764705882353310e-02,-5.252622377622377936e-01
0.000000000000000000e+00,-1.000000000000000000e+00
0.000000000000000000e+00,-1.000000000000000000e+00
0.000000000000000000e+00,-1.000000000000000000e+00
0.000000000000000000e+00,-1.000000000000000000e+00
0.000000000000000000e+00,-1.000000000000000000e+00
0.000000000000000000e+00,-1.000000000000000000e+00
1.652941176470588136e-01,-3.869661921708185126e-01
1.464705882352941302e-01,2.700050200803212341e-01
0.000000000000000000e+00,-1.000000000000000000e+00
0.000000000000000000e+00,-1.000000000000000000e+00
0.000000000000000000e+00,-1.000000000000000000e+00
0.000000000000000000e+00,-1.000000000000000000e+00
0.000000000000000000e+00,-1.000000000000000000e+00
0.000000000000000000e+00,-1.000000000000000000e+00
0.000000000000000000e+00,-1.000000000000000000e+00
0.000000000000000000e+00,-1.000000000000000000e+00
0.000000000000000000e+00,-1.000000000000000000e+00
0.000000000000000000e+00,-1.000000000000000000e+00
0.000000000000000000e+00,-1.000000000000000000e+00
0.000000000000000000e+00,-1.000000000000000000e+00
0.000000000000000000e+00,-1.000000000000000000e+00
0.000000000000000000e+00,-1.000000000000000000e+00
0.000000000000000000e+00,-1.000000000000000000e+00
0.000000000000000000e+00,-1.000000000000000000e+00
1.817647058823529393e-01,4.232807443365695921e-01
1.764705882352941291e-01,2.912291666666666501e-01
2.058823529411764608e-01,3.329999999999999627e-01
2.082352941176470462e-01,1.855225988700566209e-01
0.000000000000000000e+00,-1.000000000000000000e+00
0.000000000000000000e+00,-1.000000000000000000e+00
1.505882352941176339e-01,-9.670410156250000000e-01
2.858823529411764763e-01,-8.114068930041151706e-01
2.782352941176470806e-01,-6.057610993657505105e-01
2.852941176470588092e-01,-7.987499999999999600e-01
2.782352941176470806e-01,-6.057610993657505105e-01
2.700000000000000178e-01,-4.151007625272331580e-01
2.694117647058823506e-01,-2.158433406113536845e-01
2.670588235294117374e-01,-2.104900881057270023e-02
2.694117647058823506e-01,-2.158433406113536845e-01
2.635294117647059009e-01,-6.752232142857139685e-03
2.647058823529411797e-01,-2.004722222222221628e-01
2.641176470588235126e-01,-4.927616926503342043e-03
2.688235294117646834e-01,-1.978665207877462473e-01
2.664705882352941257e-01,-2.179911699779268908e-03
2.694117647058823506e-01,-2.220933406113536623e-01
3.335294117647059076e-01,-2.493055555555555580e-01
3.329411764705882404e-01,-3.173586572438158449e-02
3.305882352941176272e-01,1.857206405693951901e-01
3.329411764705882404e-01,-3.173586572438158449e-02
4.264705882352941013e-01,-3.787931034482761028e-02
5.670588235294117263e-01,-4.565612033195021180e-02
7.941176470588234837e-01,-5.683796296296306227e-02
2.564705882352941169e-01,6.067373853211008861e-01
1.317647058823529505e-01,2.903738839285714413e-01
5.470588235294117363e-02,-9.553091397849462485e-01
0.000000000000000000e+00,-1.000000000000000000e+00
0.000000000000000000e+00,-1.000000000000000000e+00
0.000000000000000000e+00,-1.000000000000000000e+00
0.000000000000000000e+00,-1.000000000000000000e+00
0.000000000000000000e+00,-1.000000000000000000e+00
0.000000000000000000e+00,-1.000000000000000000e+00
0.000000000000000000e+00,-1.000000000000000000e+00
0.000000000000000000e+00,-1.000000000000000000e+00
0.000000000000000000e+00,-1.000000000000000000e+00
0.000000000000000000e+00,-1.000000000000000000e+00
0.000000000000000000e+00,-1.000000000000000000e+00
0.000000000000000000e+00,-1.000000000000000000e+00
0.000000000000000000e+00,-1.000000000000000000e+00
8.870588235294117885e-01,6.346651193633952026e-01
8.429411764705881938e-01,2.658060013956733414e-01
1.290588235294117592e+00,3.235956016408387814e-01
0.000000000000000000e+00,-1.000000000000000000e+00
1.387647058823529456e+00,5.394155362441712676e-01
0.000000000000000000e+00,-1.000000000000000000e+00
1.298823529411764710e+00,3.407580389492754769e-01
1.319411764705882284e+00,-6.363742755238519511e-01
3.817647058823529505e-01,6.172380585516179519e-01
0.000000000000000000e+00,-1.000000000000000000e+00
4.247058823529411553e-01,-8.752250692520775477e-01
0.000000000000000000e+00,-1.000000000000000000e+00
4.500000000000000111e-01,6.983823529411765652e-01
0.000000000000000000e+00,-1.000000000000000000e+00
4.729411764705882537e-01,-8.581623134328357771e-01
4.523529411764705688e-01,-6.117929128738621714e-01
4.411764705882352811e-01,-3.638250000000000650e-01
5.876470588235294112e-01,-4.216028528528528163e-01
0.000000000000000000e+00,-1.000000000000000000e+00
0.000000000000000000e+00,-1.000000000000000000e+00
0.000000000000000000e+00,-1.000000000000000000e+00
0.000000000000000000e+00,-1.000000000000000000e+00
0.000000000000000000e+00,-1.000000000000000000e+00
0.000000000000000000e+00,-1.000000000000000000e+00
0.000000000000000000e+00,-1.000000000000000000e+00
0.000000000000000000e+00,-1.000000000000000000e+00
0.000000000000000000e+00,-1.000000000000000000e+00
0.000000000000000000e+00,-1.000000000000000000e+00
0.000000000000000000e+00,-1.000000000000000000e+00
0.000000000000000000e+00,-1.000000000000000000e+00
0.000000000000000000e+00,-1.000000000000000000e+00
0.000000000000000000e+00,-1.000000000000000000e+00
0.000000000000000000e+00,-1.000000000000000000e+00
0.000000000000000000e+00,-1.000000000000000000e+00
7.235294117647059209e-02,2.851626016260162544e-01
7.470588235294117752e-02,3.874999999999999556e-01
8.176470588235294767e-02,4.085881294964028854e-01
9.235294117647058210e-02,4.332802547770699952e-01
8.999999999999999667e-02,3.188316993464053173e-01
9.235294117647058210e-02,4.332802547770699952e-01
9.294117647058823539e-02,3.169303797468354666e-01
9.176470588235294268e-02,2.031250000000000000e-01
9.294117647058823539e-02,3.169303797468354666e-01
9.176470588235294268e-02,2.031250000000000000e-01
8.999999999999999667e-02,3.250816993464051841e-01
9.176470588235294268e-02,1.961538461538461231e-01
8.882352941176470396e-02,8.137417218543041564e-02
0.000000000000000000e+00,-1.000000000000000000e+00
0.000000000000000000e+00,-1.000000000000000000e+00
0.000000000000000000e+00,-1.000000000000000000e+00
0.000000000000000000e+00,-1.000000000000000000e+00
0.000000000000000000e+00,-1.000000000000000000e+00
0.000000000000000000e+00,-1.000000000000000000e+00
9.588235294117647411e-02,-2.672546012269949589e-02
0.000000000000000000e+00,-1.000000000000000000e+00
0.000000000000000000e+00,-1.000000000000000000e+00
1.076470588235294151e-01,-1.001707650273223615e-01
0.000000000000000000e+00,-1.000000000000000000e+00
0.000000000000000000e+00,-1.000000000000000000e+00
0.000000000000000000e+00,-1.000000000000000000e+00
0.000000000000000000e+00,-1.000000000000000000e+00
0.000000000000000000e+00,-1.000000000000000000e+00
0.000000000000000000e+00,-1.000000000000000000e+00
0.000000000000000000e+00,-1.000000000000000000e+00
0.000000000000000000e+00,-1.000000000000000000e+00
0.000000000000000000e+00,-1.000000000000000000e+00
1.511764705882353010e-01,-4.412208171206225549e-01
1.770588235294117685e-01,-4.793604651162790553e-01
2.129411764705882448e-01,-5.250000000000000222e-01
2.123529411764705777e-01,-3.508656509695290415e-01
2.558823529411764497e-01,-3.881609195402299095e-01
3.217647058823529527e-01,-4.346663619744057794e-01
4.064705882352941391e-01,-4.931982633863964960e-01
5.482352941176470429e-01,-5.674624463519313267e-01
5.335294117647059187e-01,-2.930815876515986407e-01
7.423529411764705488e-01,-3.453991679873217313e-01
1.095294117647058751e+00,-4.210425617615467520e-01
1.223529411764705949e-01,-2.689302884615385469e-01
1.335294117647058687e-01,-2.780286343612334843e-01
1.517647058823529405e-01,-2.873304263565892303e-01
1.747058823529411831e-01,-3.018518518518518157e-01
1.988235294117647045e-01,-3.130732248520710082e-01
2.329411764705882348e-01,-3.311237373737373479e-01
2.747058823529411886e-01,-3.511375802997858120e-01
3.358823529411764652e-01,-3.717053415061296606e-01
4.117647058823529216e-01,-4.030357142857142749e-01
5.223529411764705754e-01,-4.427364864864864469e-01
6.970588235294117307e-01,-4.939556962025316578e-01
9.764705882352940902e-01,-5.708170180722891285e-01
9.517647058823529571e-01,-2.390798825710753750e-01
9.552941176470588491e-01,9.590902093596076483e-02
9.470588235294117307e-01,-2.308579192546583725e-01
9.552941176470588491e-01,9.908405172413781159e-02
9.470588235294117307e-01,-2.308579192546583725e-01
9.482352941176470651e-01,1.011631513647643921e-01
9.470588235294117307e-01,-2.308579192546583725e-01
9.547058823529411820e-01,9.581792975970437887e-02
9.511764705882352899e-01,-2.408665739022881613e-01
9.547058823529411820e-01,9.581792975970437887e-02
9.470588235294117307e-01,-2.308579192546583725e-01
9.535294117647058476e-01,1.041718075262183518e-01
9.835294117647058743e-01,4.460601076555024136e-01
9.570588235294117396e-01,1.068454210202827159e-01
9.858823529411764319e-01,4.547658114558472686e-01
9.588235294117647411e-01,1.187499999999999112e-01
9.858823529411764319e-01,4.547658114558472686e-01
9.599999999999999645e-01,1.230621936274509665e-01
9.852941176470588758e-01,4.602313432835820617e-01
9.599999999999999645e-01,1.230621936274509665e-01
8.823529411764706454e-02,9.194166666666667709e-01
8.641176470588235459e-01,-9.536249149081010845e-02
0.000000000000000000e+00,-1.000000000000000000e+00
0.000000000000000000e+00,-1.000000000000000000e+00
0.000000000000000000e+00,-1.000000000000000000e+00
0.000000000000000000e+00,-1.000000000000000000e+00
0.000000000000000000e+00,-1.000000000000000000e+00
9.176470588235294268e-02,-6.148237179487179294e-01
0.000000000000000000e+00,-1.000000000000000000e+00
1.356470588235294095e+00,-8.762846921075455597e-01
9.823529411764705954e-02,-3.026946107784430628e-01
0.000000000000000000e+00,-1.000000000000000000e+00
6.529411764705882193e-02,6.213963963963962112e-01
0.000000000000000000e+00,-1.000000000000000000e+00
0.000000000000000000e+00,-1.000000000000000000e+00
0.000000000000000000e+00,-1.000000000000000000e+00
0.000000000000000000e+00,-1.000000000000000000e+00
0.000000000000000000e+00,-1.000000000000000000e+00
0.000000000000000000e+00,-1.000000000000000000e+00
8.941176470588235725e-02,-7.969161184210525883e-01
0.000000000000000000e+00,-1.000000000000000000e+00
0.000000000000000000e+00,-1.000000000000000000e+00
0.000000000000000000e+00,-1.000000000000000000e+00
1.111764705882352933e-01,-6.804563492063492314e-01
0.000000000000000000e+00,-1.000000000000000000e+00
6.705882352941176794e-02,-6.589912280701754055e-01
5.117647058823529549e-02,9.740660919540229390e-01
0.000000000000000000e+00,-1.000000000000000000e+00
0.000000000000000000e+00,-1.000000000000000000e+00
0.000000000000000000e+00,-1.000000000000000000e+00
0.000000000000000000e+00,-1.000000000000000000e+00
0.000000000000000000e+00,-1.000000000000000000e+00
1.023529411764705910e-01,-1.503951149425286626e-01
1.152941176470588247e-01,-1.588329081632652295e-01
1.258823529411764730e-01,-1.566296728971963148e-01
1.423529411764705987e-01,-1.661415289256197303e-01
1.623529411764705888e-01,-1.719882246376812640e-01
1.888235294117646956e-01,-1.799260124610592149e-01
2.158823529411764697e-01,-1.846900544959128032e-01
2.541176470588235037e-01,-1.938078703703703942e-01
3.017647058823529349e-01,-2.012061403508772495e-01
3.670588235294117707e-01,-2.138421474358974672e-01
4.611764705882352988e-01,-2.295679209183674185e-01
4.641176470588235237e-01,8.967046894803543111e-03
0.000000000000000000e+00,-1.000000000000000000e+00
0.000000000000000000e+00,-1.000000000000000000e+00
0.000000000000000000e+00,-1.000000000000000000e+00
0.000000000000000000e+00,-1.000000000000000000e+00
0.000000000000000000e+00,-1.000000000000000000e+00
0.000000000000000000e+00,-1.000000000000000000e+00
0.000000000000000000e+00,-1.000000000000000000e+00
0.000000000000000000e+00,-1.000000000000000000e+00
0.000000000000000000e+00,-1.000000000000000000e+00
0.000000000000000000e+00,-1.000000000000000000e+00
0.000000000000000000e+00,-1.000000000000000000e+00
0.000000000000000000e+00,-1.000000000000000000e+00
0.000000000000000000e+00,-1.000000000000000000e+00
0.000000000000000000e+00,-1.000000000000000000e+00
0.000000000000000000e+00,-1.000000000000000000e+00
0.000000000000000000e+00,-1.000000000000000000e+00
1.482352941176470484e-01,6.200396825396825573e-01
1.758823529411764619e-01,6.707148829431439641e-01
2.117647058823529382e-01,7.294618055555557312e-01
2.582352941176470629e-01,8.007260820045558614e-01
3.252941176470588447e-01,8.868444846292948824e-01
2.164705882352941091e-01,9.533118206521737914e-01
0.000000000000000000e+00,-1.000000000000000000e+00
0.000000000000000000e+00,-1.000000000000000000e+00
0.000000000000000000e+00,-1.000000000000000000e+00
0.000000000000000000e+00,-1.000000000000000000e+00
0.000000000000000000e+00,-1.000000000000000000e+00
0.000000000000000000e+00,-1.000000000000000000e+00
0.000000000000000000e+00,-1.000000000000000000e+00
0.000000000000000000e+00,-1.000000000000000000e+00
0.000000000000000000e+00,-1.000000000000000000e+00
0.000000000000000000e+00,-1.000000000000000000e+00
0.000000000000000000e+00,-1.000000000000000000e+00
0.000000000000000000e+00,-1.000000000000000000e+00
0.000000000000000000e+00,-1.000000000000000000e+00
0.000000000000000000e+00,-1.000000000000000000e+00
0.000000000000000000e+00,-1.000000000000000000e+00
0.000000000000000000e+00,-1.000000000000000000e+00
1.129411764705882393e-01,-2.304036458333332815e-01
1.147058823529411714e-01,-1.020192307692306954e-01
1.300000000000000044e-01,-1.100961538461537881e-01
1.541176470588235259e-01,-1.209208015267175806e-01
1.547058823529411653e-01,2.830323193916362001e-02
1.552941176470588325e-01,-1.169744318181817899e-01
1.841176470588235248e-01,-1.286142172523960792e-01
1.805882352941176605e-01,3.210504885993481494e-02
2.211764705882353077e-01,3.405917553191484259e-02
2.641176470588235126e-01,3.646993318485525215e-02
3.294117647058823484e-01,3.950892857142873638e-02
4.241176470588235436e-01,4.138349514563111065e-02
5.611764705882352766e-01,4.657363731656194439e-02
7.858823529411764763e-01,5.221744011976037214e-02
9.705882352941176683e-02,-9.621212121212030510e-03
0.000000000000000000e+00,-1.000000000000000000e+00
0.000000000000000000e+00,-1.000000000000000000e+00
0.000000000000000000e+00,-1.000000000000000000e+00
0.000000000000000000e+00,-1.000000000000000000e+00
1.429411764705882382e-01,-1.991512345679012919e-01
1.676470588235293990e-01,-2.169298245614035281e-01
2.011764705882352899e-01,-2.393457602339180701e-01
2.494117647058823606e-01,-2.668484669811320709e-01
3.105882352941176650e-01,-2.983191287878788067e-01
3.976470588235294090e-01,-3.386094674556212603e-01
5.276470588235293580e-01,-3.901546822742474330e-01
7.264705882352940902e-01,-4.578744939271255365e-01
1.077647058823529402e+00,-5.555438045851528450e-01
2.347058823529411808e-01,5.211309523809524169e-01
2.311764705882352888e-01,3.401081424936385211e-01
0.000000000000000000e+00,-1.000000000000000000e+00
0.000000000000000000e+00,-1.000000000000000000e+00
0.000000000000000000e+00,-1.000000000000000000e+00
0.000000000000000000e+00,-1.000000000000000000e+00
2.258823529411764786e-01,-4.829101562500000000e-01
2.258823529411764786e-01,-3.965494791666667185e-01
3.176470588235293935e-01,-4.717592592592592116e-01
5.235294117647059098e-01,-6.019803370786517283e-01
5.158823529411764586e-01,-4.927023945267958727e-01
0.000000000000000000e+00,-1.000000000000000000e+00
0.000000000000000000e+00,-1.000000000000000000e+00
0.000000000000000000e+00,-1.000000000000000000e+00
0.000000000000000000e+00,-1.000000000000000000e+00
4.794117647058823706e-01,1.782745398773006862e-01
7.676470588235294601e-01,2.153496168582376136e-01
7.576470588235294512e-01,3.154114906832305998e-02
9.776470588235294246e-01,3.437876052948252159e-02
1.076470588235294151e-01,5.941598360655737654e-01
0.000000000000000000e+00,-1.000000000000000000e+00
0.000000000000000000e+00,-1.000000000000000000e+00
0.000000000000000000e+00,-1.000000000000000000e+00
0.000000000000000000e+00,-1.000000000000000000e+00
9.529411764705882082e-02,4.969135802469137886e-02
0.000000000000000000e+00,-1.000000000000000000e+00
0.000000000000000000e+00,-1.000000000000000000e+00
0.000000000000000000e+00,-1.000000000000000000e+00
0.000000000000000000e+00,-1.000000000000000000e+00
1.223529411764705949e-01,-8.331730769230769607e-01
1.194117647058823561e-01,-6.407019704433497553e-01
1.152941176470588247e-01,-4.602359693877551283e-01
1.164705882352941174e-01,-2.768623737373736571e-01
1.411764705882352922e-01,-3.031770833333333748e-01
1.676470588235293990e-01,-3.328289473684210575e-01
1.847058823529411642e-01,-3.501990445859872736e-01
2.247058823529411720e-01,-3.866655759162302974e-01
2.958823529411764852e-01,-4.451913518886679855e-01
6.300000000000000044e-01,-3.483951914098972757e-01
9.182352941176470384e-01,-4.217048366431774831e-01
1.438235294117647056e+00,-5.272060327198364593e-01
1.429411764705882382e-01,-4.770061728395061929e-01
1.523529411764705799e-01,-3.919884169884169101e-01
0.000000000000000000e+00,-1.000000000000000000e+00
1.611764705882352822e-01,6.524406934306568040e-01
1.905882352941176416e-01,7.097608024691357542e-01
2.323529411764705954e-01,7.746518987341772799e-01
2.894117647058823684e-01,8.541539634146342319e-01
2.941176470588235392e-01,9.349250000000002281e-01
0.000000000000000000e+00,-1.000000000000000000e+00
0.000000000000000000e+00,-1.000000000000000000e+00
0.000000000000000000e+00,-1.000000000000000000e+00
0.000000000000000000e+00,-1.000000000000000000e+00
0.000000000000000000e+00,-1.000000000000000000e+00
1.923529411764705876e-01,2.729357798165144011e-02
2.323529411764705954e-01,2.841772151898735999e-02
2.847058823529411975e-01,3.006198347107447155e-02
3.794117647058823373e-01,3.316860465116278078e-02
5.652941176470588358e-01,3.590660770031228743e-02
8.570588235294117618e-01,4.123627316403566390e-02
1.547058823529411653e-01,3.947243346007600628e-02
1.547058823529411653e-01,-1.095532319391635534e-01
1.788235294117647145e-01,-1.196340460526315042e-01
1.788235294117647145e-01,-2.803042763157894690e-01
2.170588235294117763e-01,-3.069275067750677488e-01
2.670588235294117374e-01,-3.409278634361233573e-01
3.317647058823529616e-01,-3.831781914893617191e-01
4.299999999999999933e-01,-4.347725718194255240e-01
5.782352941176470695e-01,-5.045142421159715118e-01
8.205882352941176183e-01,-5.980376344086021367e-01
7.982352941176470429e-01,-2.628039793662491075e-01
1.188235294117647056e+00,-3.241553217821782074e-01
