2.300000000000000100e-01,6.563778772378516813e-01
1.394117647058823461e-01,-5.770042194092827037e-01
1.376470588235294001e-01,-4.502670940170940828e-01
1.323529411764705899e-01,-3.219444444444443665e-01
0.000000000000000000e+00,-1.000000000000000000e+00
0.000000000000000000e+00,-1.000000000000000000e+00
0.000000000000000000e+00,-1.000000000000000000e+00
1.311764705882352833e-01,-6.433576233183856408e-01
1.088235294117647078e-01,6.013513513513535358e-03
1.376470588235294001e-01,7.563034188034187810e-01
0.000000000000000000e+00,-1.000000000000000000e+00
0.000000000000000000e+00,-1.000000000000000000e+00
0.000000000000000000e+00,-1.000000000000000000e+00
0.000000000000000000e+00,-1.000000000000000000e+00
0.000000000000000000e+00,-1.000000000000000000e+00
0.000000000000000000e+00,-1.000000000000000000e+00
0.000000000000000000e+00,-1.000000000000000000e+00
0.000000000000000000e+00,-1.000000000000000000e+00
0.000000000000000000e+00,-1.000000000000000000e+00
0.000000000000000000e+00,-1.000000000000000000e+00
0.000000000000000000e+00,-1.000000000000000000e+00
0.000000000000000000e+00,-1.000000000000000000e+00
0.000000000000000000e+00,-1.000000000000000000e+00
0.000000000000000000e+00,-1.000000000000000000e+00
0.000000000000000000e+00,-1.000000000000000000e+00
0.000000000000000000e+00,-1.000000000000000000e+00
0.000000000000000000e+00,-1.000000000000000000e+00
7.352941176470588480e-02,-2.567500000000000338e-01
7.352941176470588480e-02,3.603999999999998316e-01
0.000000000000000000e+00,-1.000000000000000000e+00
7.941176470588234837e-02,-4.820833333333334192e-01
7.294117647058823151e-02,2.267137096774194394e-01
0.000000000000000000e+00,-1.000000000000000000e+00
0.000000000000000000e+00,-1.000000000000000000e+00
2.470588235294117752e-01,-3.862946428571428781e-01
2.388235294117647123e-01,2.785868226600984876e-01
2.635294117647059009e-01,-5.600864955357143238e-01
3.317647058823529616e-01,-6.289007092198581894e-01
4.158823529411764808e-01,-7.026166902404525905e-01
5.341176470588234748e-01,-7.882709251101321923e-01
6.594117647058823639e-01,-9.019179304192684876e-01
0.000000000000000000e+00,-1.000000000000000000e+00
0.000000000000000000e+00,-1.000000000000000000e+00
9.529411764705882082e-02,5.773919753086418361e-01
8.823529411764706454e-02,-3.034166666666666679e-01
9.058823529411764996e-02,4.290178571428571175e-01
0.000000000000000000e+00,-1.000000000000000000e+00
0.000000000000000000e+00,-1.000000000000000000e+00
0.000000000000000000e+00,-1.000000000000000000e+00
0.000000000000000000e+00,-1.000000000000000000e+00
0.000000000000000000e+00,-1.000000000000000000e+00
0.000000000000000000e+00,-1.000000000000000000e+00
0.000000000000000000e+00,-1.000000000000000000e+00
9.117647058823528938e-02,3.777419354838709165e-01
8.823529411764706454e-02,-3.549583333333333757e-01
9.941176470588235226e-02,-3.749260355029585545e-01
1.094117647058823473e-01,-3.996303763440860468e-01
1.141176470588235320e-01,-5.163337628865979356e-01
1.135294117647058787e-01,-6.298898963730570344e-01
1.158823529411764641e-01,-7.398477157360405787e-01
1.199999999999999956e-01,-8.508272058823529438e-01
1.164705882352941174e-01,-7.403093434343434032e-01
1.041176470588235231e-01,9.082274011299436012e-01
7.764705882352941624e-02,2.104166666666666963e-01
8.470588235294117252e-02,2.168836805555556246e-01
9.411764705882352811e-02,2.303124999999999201e-01
1.076470588235294151e-01,2.426571038251366108e-01
1.229411764705882343e-01,2.576854066985645453e-01
0.000000000000000000e+00,-1.000000000000000000e+00
0.000000000000000000e+00,-1.000000000000000000e+00
0.000000000000000000e+00,-1.000000000000000000e+00
1.470588235294117696e-01,6.347000000000000419e-01
1.499999999999999944e-01,7.422058823529411598e-01
0.000000000000000000e+00,-1.000000000000000000e+00
0.000000000000000000e+00,-1.000000000000000000e+00
3.423529411764705821e-01,-3.096756872852234332e-01
3.917647058823529593e-01,6.583802552552551202e-01
0.000000000000000000e+00,-1.000000000000000000e+00
0.000000000000000000e+00,-1.000000000000000000e+00
0.000000000000000000e+00,-1.000000000000000000e+00
0.000000000000000000e+00,-1.000000000000000000e+00
0.000000000000000000e+00,-1.000000000000000000e+00
0.000000000000000000e+00,-1.000000000000000000e+00
0.000000000000000000e+00,-1.000000000000000000e+00
0.000000000000000000e+00,-1.000000000000000000e+00
0.000000000000000000e+00,-1.000000000000000000e+00
0.000000000000000000e+00,-1.000000000000000000e+00
0.000000000000000000e+00,-1.000000000000000000e+00
0.000000000000000000e+00,-1.000000000000000000e+00
0.000000000000000000e+00,-1.000000000000000000e+00
0.000000000000000000e+00,-1.000000000000000000e+00
0.000000000000000000e+00,-1.000000000000000000e+00
0.000000000000000000e+00,-1.000000000000000000e+00
0.000000000000000000e+00,-1.000000000000000000e+00
0.000000000000000000e+00,-1.000000000000000000e+00
0.000000000000000000e+00,-1.000000000000000000e+00
0.000000000000000000e+00,-1.000000000000000000e+00
0.000000000000000000e+00,-1.000000000000000000e+00
6.294117647058823650e-02,-3.896612149532709957e-01
6.823529411764706065e-02,-4.057112068965517127e-01
6.588235294117647523e-02,2.356026785714286920e-01
8.411764705882353310e-02,8.461101398601400536e-01
8.117647058823529438e-02,-6.532155797101448780e-01
8.058823529411764108e-02,-5.754562043795620196e-01
7.941176470588234837e-02,-4.995833333333333792e-01
8.588235294117646523e-02,-5.254708904109588463e-01
9.529411764705882082e-02,-5.525077160493827577e-01
1.058823529411764691e-01,-5.812847222222222721e-01
1.194117647058823561e-01,-6.159482758620689058e-01
0.000000000000000000e+00,-1.000000000000000000e+00
0.000000000000000000e+00,-1.000000000000000000e+00
0.000000000000000000e+00,-1.000000000000000000e+00
1.147058823529411714e-01,9.361858974358974184e-01
1.123529411764705860e-01,8.397905759162302974e-01
1.105882352941176539e-01,7.505319148936169249e-01
0.000000000000000000e+00,-1.000000000000000000e+00
0.000000000000000000e+00,-1.000000000000000000e+00
0.000000000000000000e+00,-1.000000000000000000e+00
0.000000000000000000e+00,-1.000000000000000000e+00
0.000000000000000000e+00,-1.000000000000000000e+00
0.000000000000000000e+00,-1.000000000000000000e+00
0.000000000000000000e+00,-1.000000000000000000e+00
0.000000000000000000e+00,-1.000000000000000000e+00
0.000000000000000000e+00,-1.000000000000000000e+00
0.000000000000000000e+00,-1.000000000000000000e+00
0.000000000000000000e+00,-1.000000000000000000e+00
0.000000000000000000e+00,-1.000000000000000000e+00
0.000000000000000000e+00,-1.000000000000000000e+00
1.347058823529411753e-01,-5.549945414847161640e-01
0.000000000000000000e+00,-1.000000000000000000e+00
1.358823529411764819e-01,-5.687770562770563254e-01
1.223529411764705949e-01,1.241586538461538769e-01
1.352941176470588147e-01,1.306249999999999911e-01
1.558823529411764719e-01,1.383018867924528106e-01
1.758823529411764619e-01,1.455476588628763501e-01
2.017647058823529294e-01,1.560131195335276999e-01
2.023529411764705965e-01,2.523619186046510698e-02
2.023529411764705965e-01,-1.060319767441860739e-01
2.017647058823529294e-01,-2.334548104956268855e-01
2.129411764705882448e-01,3.908321823204419232e-01
0.000000000000000000e+00,-1.000000000000000000e+00
0.000000000000000000e+00,-1.000000000000000000e+00
0.000000000000000000e+00,-1.000000000000000000e+00
0.000000000000000000e+00,-1.000000000000000000e+00
0.000000000000000000e+00,-1.000000000000000000e+00
0.000000000000000000e+00,-1.000000000000000000e+00
0.000000000000000000e+00,-1.000000000000000000e+00
0.000000000000000000e+00,-1.000000000000000000e+00
0.000000000000000000e+00,-1.000000000000000000e+00
0.000000000000000000e+00,-1.000000000000000000e+00
0.000000000000000000e+00,-1.000000000000000000e+00
0.000000000000000000e+00,-1.000000000000000000e+00
0.000000000000000000e+00,-1.000000000000000000e+00
0.000000000000000000e+00,-1.000000000000000000e+00
6.588235294117647523e-02,-3.822544642857143016e-01
6.294117647058823650e-02,1.834696261682242646e-01
6.352941176470587592e-02,2.598379629629630205e-01
6.470588235294118251e-02,-3.557386363636363402e-01
0.000000000000000000e+00,-1.000000000000000000e+00
0.000000000000000000e+00,-1.000000000000000000e+00
0.000000000000000000e+00,-1.000000000000000000e+00
0.000000000000000000e+00,-1.000000000000000000e+00
0.000000000000000000e+00,-1.000000000000000000e+00
0.000000000000000000e+00,-1.000000000000000000e+00
5.647058823529411964e-02,-4.207031249999999556e-01
5.294117647058823456e-02,2.327777777777777501e-01
5.411764705882352727e-02,2.991847826086957429e-01
5.294117647058823456e-02,3.643750000000001155e-01
5.470588235294117363e-02,4.312499999999999112e-01
5.647058823529411964e-02,4.473958333333334370e-01
6.235294117647059015e-02,4.642099056603774532e-01
6.764705882352940736e-02,4.819565217391303946e-01
7.235294117647059209e-02,5.040142276422765466e-01
8.117647058823529438e-02,5.257246376811592903e-01
0.000000000000000000e+00,-1.000000000000000000e+00
1.958823529411764797e-01,-8.360360360360360454e-01
1.523529411764705799e-01,-1.969353281853282178e-01
1.523529411764705799e-01,-3.150337837837837718e-01
1.558823529411764719e-01,-4.300707547169811962e-01
1.582352941176470573e-01,-5.495585501858736288e-01
1.252941176470588336e-01,-3.323063380281690016e-01
1.352941176470588147e-01,-3.460054347826087007e-01
1.499999999999999944e-01,-3.607352941176470429e-01
1.823529411764705788e-01,-8.314112903225806539e-01
1.776470588235294079e-01,-7.077814569536423628e-01
1.747058823529411831e-01,-5.885942760942761698e-01
1.776470588235294079e-01,-6.805877483443708575e-01
1.794117647058823539e-01,-7.657581967213115126e-01
1.829411764705882459e-01,-8.571945337620578975e-01
1.817647058823529393e-01,-9.447208737864077888e-01
0.000000000000000000e+00,-1.000000000000000000e+00
0.000000000000000000e+00,-1.000000000000000000e+00
0.000000000000000000e+00,-1.000000000000000000e+00
0.000000000000000000e+00,-1.000000000000000000e+00
0.000000000000000000e+00,-1.000000000000000000e+00
0.000000000000000000e+00,-1.000000000000000000e+00
0.000000000000000000e+00,-1.000000000000000000e+00
0.000000000000000000e+00,-1.000000000000000000e+00
0.000000000000000000e+00,-1.000000000000000000e+00
0.000000000000000000e+00,-1.000000000000000000e+00
0.000000000000000000e+00,-1.000000000000000000e+00
0.000000000000000000e+00,-1.000000000000000000e+00
0.000000000000000000e+00,-1.000000000000000000e+00
0.000000000000000000e+00,-1.000000000000000000e+00
0.000000000000000000e+00,-1.000000000000000000e+00
0.000000000000000000e+00,-1.000000000000000000e+00
0.000000000000000000e+00,-1.000000000000000000e+00
0.000000000000000000e+00,-1.000000000000000000e+00
0.000000000000000000e+00,-1.000000000000000000e+00
2.141176470588235237e-01,-7.597012362637363125e-01
2.382352941176470451e-01,-8.007561728395061751e-01
2.764705882352941346e-01,-8.550664893617021534e-01
2.182352941176470551e-01,-9.513140161725067712e-01
0.000000000000000000e+00,-1.000000000000000000e+00
0.000000000000000000e+00,-1.000000000000000000e+00
0.000000000000000000e+00,-1.000000000000000000e+00
0.000000000000000000e+00,-1.000000000000000000e+00
0.000000000000000000e+00,-1.000000000000000000e+00
0.000000000000000000e+00,-1.000000000000000000e+00
0.000000000000000000e+00,-1.000000000000000000e+00
1.994117647058823439e-01,-8.669616519174041525e-01
1.588235294117646967e-01,-3.383333333333333748e-01
1.505882352941176339e-01,1.541992187500000888e-01
1.799999999999999933e-01,6.847834967320260979e-01
2.041176470588235425e-01,7.221902017291064180e-01
2.411764705882352977e-01,7.788109756097560954e-01
2.705882352941176294e-01,8.228940217391305101e-01
2.635294117647059009e-01,6.606863839285714857e-01
2.582352941176470629e-01,5.470671981776766835e-01
2.541176470588235037e-01,3.980468749999999112e-01
2.488235294117646934e-01,2.890218676122930930e-01
2.452941176470588291e-01,1.738758992805755632e-01
3.417647058823529149e-01,4.499569707401032126e-01
3.499999999999999778e-01,5.545588235294116597e-01
3.599999999999999867e-01,6.630616830065361178e-01
1.335294117647058687e-01,3.188050660792951518e-01
0.000000000000000000e+00,-1.000000000000000000e+00
1.423529411764705987e-01,3.788997933884297176e-01
3.582352941176470407e-01,6.673747947454842233e-01
3.494117647058823661e-01,5.425399831649833082e-01
3.976470588235294090e-01,6.000369822485207560e-01
4.511764705882352899e-01,6.650994132985659224e-01
3.994117647058823550e-01,6.466310751104564769e-01
5.047058823529412264e-01,6.275495337995338208e-01
3.676470588235294379e-01,3.104100000000000747e-01
5.164705882352941257e-01,6.156036446469248524e-01
3.388235294117646901e-01,6.200195312500000888e-01
5.941176470588235142e-02,-8.589727722772277918e-01
6.294117647058823650e-02,-8.845210280373831946e-01
6.823529411764706065e-02,-9.114224137931034031e-01
7.058823529411764608e-02,-9.399479166666666607e-01
0.000000000000000000e+00,-1.000000000000000000e+00
1.164705882352941174e-01,9.737373737373737903e-01
7.194117647058823062e-01,8.913838920686836254e-01
5.352941176470588092e-02,-5.694368131868132732e-01
0.000000000000000000e+00,-1.000000000000000000e+00
0.000000000000000000e+00,-1.000000000000000000e+00
0.000000000000000000e+00,-1.000000000000000000e+00
5.058823529411764913e-02,4.215116279069763827e-02
5.294117647058823456e-02,4.361111111111126704e-02
5.294117647058823456e-02,-8.194444444444393127e-03
5.352941176470588092e-02,-8.722527472527463743e-02
7.411764705882352422e-02,-6.812500000000000222e-01
6.117647058823529743e-02,-5.498798076923083755e-02
7.470588235294117752e-02,-6.940452755905511806e-01
8.058823529411764108e-02,-7.270072992700730152e-01
9.058823529411764996e-02,-7.648538961038960915e-01
1.000000000000000056e-01,-8.019117647058823239e-01
1.017647058823529377e-01,-8.937500000000000444e-01
6.941176470588235337e-02,-9.759004237288135819e-01
1.000000000000000056e-01,-9.046323529411764985e-01
0.000000000000000000e+00,-1.000000000000000000e+00
0.000000000000000000e+00,-1.000000000000000000e+00
6.605882352941176983e-01,4.206589492430987676e-01
1.035294117647058837e-01,9.761008522727272485e-01
0.000000000000000000e+00,-1.000000000000000000e+00
7.541176470588235592e-01,9.110471918876754671e-01
1.162352941176470589e+00,6.701195597165992002e-01
7.817647058823529171e-01,9.080981941309254069e-01
9.123529411764705888e-01,2.924121534493875352e-01
9.535294117647058476e-01,-4.472663479333744974e-01
0.000000000000000000e+00,-1.000000000000000000e+00
0.000000000000000000e+00,-1.000000000000000000e+00
0.000000000000000000e+00,-1.000000000000000000e+00
0.000000000000000000e+00,-1.000000000000000000e+00
0.000000000000000000e+00,-1.000000000000000000e+00
0.000000000000000000e+00,-1.000000000000000000e+00
0.000000000000000000e+00,-1.000000000000000000e+00
0.000000000000000000e+00,-1.000000000000000000e+00
0.000000000000000000e+00,-1.000000000000000000e+00
0.000000000000000000e+00,-1.000000000000000000e+00
0.000000000000000000e+00,-1.000000000000000000e+00
0.000000000000000000e+00,-1.000000000000000000e+00
0.000000000000000000e+00,-1.000000000000000000e+00
0.000000000000000000e+00,-1.000000000000000000e+00
0.000000000000000000e+00,-1.000000000000000000e+00
0.000000000000000000e+00,-1.000000000000000000e+00
0.000000000000000000e+00,-1.000000000000000000e+00
0.000000000000000000e+00,-1.000000000000000000e+00
0.000000000000000000e+00,-1.000000000000000000e+00
0.000000000000000000e+00,-1.000000000000000000e+00
0.000000000000000000e+00,-1.000000000000000000e+00
9.470588235294118140e-02,-3.778726708074533480e-01
9.470588235294118140e-02,-2.882763975155280267e-01
9.411764705882352811e-02,-1.990624999999999201e-01
9.411764705882352811e-02,-1.246093750000000222e-01
1.017647058823529377e-01,-1.300939306358381842e-01
1.100000000000000006e-01,-1.355280748663101331e-01
1.217647058823529416e-01,-1.444444444444444864e-01
1.323529411764705899e-01,-1.504722222222222294e-01
1.364705882352941213e-01,2.778286637931033365e-01
1.594117647058823639e-01,7.217481549815498720e-01
1.623529411764705888e-01,8.397644927536229709e-01
1.423529411764705987e-01,9.513688016528925040e-01
0.000000000000000000e+00,-1.000000000000000000e+00
0.000000000000000000e+00,-1.000000000000000000e+00
0.000000000000000000e+00,-1.000000000000000000e+00
0.000000000000000000e+00,-1.000000000000000000e+00
0.000000000000000000e+00,-1.000000000000000000e+00
0.000000000000000000e+00,-1.000000000000000000e+00
0.000000000000000000e+00,-1.000000000000000000e+00
1.929411764705882271e-01,8.903772865853656349e-01
1.511764705882353010e-01,3.848492217898833445e-01
1.494117647058823550e-01,2.969488188976376897e-01
1.629411764705882282e-01,3.099503610108302887e-01
1.799999999999999933e-01,3.232434640522874325e-01
1.988235294117647045e-01,3.382026627218934767e-01
2.000000000000000111e-01,4.346691176470589557e-01
2.041176470588235425e-01,5.288724783861671330e-01
2.088235294117647134e-01,6.228345070422534047e-01
2.088235294117647134e-01,7.192781690140843676e-01
1.788235294117647145e-01,3.124383223684210620e-01
1.729411764705882371e-01,-1.309523809523810423e-01
1.729411764705882371e-01,-2.689838435374150016e-01
1.770588235294117685e-01,-4.041528239202658579e-01
2.058823529411764608e-01,-4.373392857142857082e-01
2.005882352941176505e-01,-2.907991202346040804e-01
2.011764705882352899e-01,-1.893274853801170110e-01
2.000000000000000111e-01,-4.716911764705888910e-02
2.000000000000000111e-01,5.937499999999995559e-02
2.164705882352941091e-01,-4.130264945652173392e-01
2.635294117647059009e-01,-9.361328125000000222e-01
1.011764705882352983e-01,-9.776889534883721478e-01
0.000000000000000000e+00,-1.000000000000000000e+00
0.000000000000000000e+00,-1.000000000000000000e+00
0.000000000000000000e+00,-1.000000000000000000e+00
0.000000000000000000e+00,-1.000000000000000000e+00
6.294117647058823650e-02,-9.869158878504672439e-01
5.194117647058823506e-01,-8.539212910532276712e-01
4.135294117647058676e-01,-3.204302987197723551e-01
5.194117647058823506e-01,-8.539212910532276712e-01
0.000000000000000000e+00,-1.000000000000000000e+00
0.000000000000000000e+00,-1.000000000000000000e+00
0.000000000000000000e+00,-1.000000000000000000e+00
0.000000000000000000e+00,-1.000000000000000000e+00
9.764705882352940625e-02,9.562500000000000444e-01
0.000000000000000000e+00,-1.000000000000000000e+00
0.000000000000000000e+00,-1.000000000000000000e+00
0.000000000000000000e+00,-1.000000000000000000e+00
0.000000000000000000e+00,-1.000000000000000000e+00
0.000000000000000000e+00,-1.000000000000000000e+00
9.823529411764705954e-02,6.740643712574851953e-01
9.647058823529411353e-02,6.044969512195124128e-01
9.764705882352940625e-02,5.378012048192770678e-01
9.411764705882352811e-02,4.711718750000000178e-01
9.470588235294118140e-02,5.401397515527950333e-01
9.764705882352940625e-02,6.128012048192772454e-01
9.941176470588235226e-02,6.817677514792896964e-01
1.082352941176470545e-01,7.077445652173914858e-01
9.117647058823528938e-02,2.665725806451613167e-01
1.100000000000000006e-01,7.510360962566846599e-01
1.076470588235294151e-01,6.807718579234971479e-01
1.070588235294117618e-01,6.059752747252749039e-01
1.052941176470588297e-01,5.295391061452514592e-01
1.082352941176470545e-01,6.032608695652175168e-01
1.076470588235294151e-01,6.761612021857925647e-01
8.882352941176470396e-02,1.502069536423840113e-01
1.005882352941176450e-01,1.559576023391813226e-01
1.058823529411764691e-01,1.616666666666666252e-01
1.147058823529411714e-01,1.679166666666667140e-01
1.258823529411764730e-01,1.730432242990653791e-01
1.235294117647058876e-01,5.464285714285699314e-02
1.435294117647058776e-01,5.462858606557376984e-01
1.458823529411764630e-01,6.288054435483871885e-01
3.288235294117646812e-01,-3.179561717352414885e-01
3.305882352941176272e-01,-1.926823843416369808e-01
3.911764705882352922e-01,-6.907706766917293129e-01
0.000000000000000000e+00,-1.000000000000000000e+00
3.941176470588235170e-01,-7.047388059701492624e-01
3.347058823529411864e-01,-2.312060632688928141e-01
3.352941176470587981e-01,2.670504385964913574e-01
3.329411764705882404e-01,1.427009717314486892e-01
3.317647058823529616e-01,1.645611702127647291e-02
3.300000000000000155e-01,-1.617869875222816001e-01
3.335294117647059076e-01,-3.305445326278659834e-01
4.164705882352940924e-01,-8.335187146892655274e-01
0.000000000000000000e+00,-1.000000000000000000e+00
0.000000000000000000e+00,-1.000000000000000000e+00
0.000000000000000000e+00,-1.000000000000000000e+00
0.000000000000000000e+00,-1.000000000000000000e+00
0.000000000000000000e+00,-1.000000000000000000e+00
0.000000000000000000e+00,-1.000000000000000000e+00
0.000000000000000000e+00,-1.000000000000000000e+00
0.000000000000000000e+00,-1.000000000000000000e+00
0.000000000000000000e+00,-1.000000000000000000e+00
0.000000000000000000e+00,-1.000000000000000000e+00
0.000000000000000000e+00,-1.000000000000000000e+00
0.000000000000000000e+00,-1.000000000000000000e+00
0.000000000000000000e+00,-1.000000000000000000e+00
0.000000000000000000e+00,-1.000000000000000000e+00
0.000000000000000000e+00,-1.000000000000000000e+00
0.000000000000000000e+00,-1.000000000000000000e+00
0.000000000000000000e+00,-1.000000000000000000e+00
0.000000000000000000e+00,-1.000000000000000000e+00
0.000000000000000000e+00,-1.000000000000000000e+00
0.000000000000000000e+00,-1.000000000000000000e+00
0.000000000000000000e+00,-1.000000000000000000e+00
1.935294117647058942e-01,1.607522796352582883e-01
1.952941176470588125e-01,2.896460843373493965e-01
2.300000000000000100e-01,3.117327365728901345e-01
2.729411764705882426e-01,3.384698275862070282e-01
3.317647058823529616e-01,3.702460106382978733e-01
3.994117647058823550e-01,4.045563328424153227e-01
3.941176470588235170e-01,2.081996268656716165e-01
3.941176470588235170e-01,1.493470149253739443e-02
3.941176470588235170e-01,-1.738432835820894473e-01
3.947058823529411842e-01,2.224292101341296402e-02
3.941176470588235170e-01,2.117350746268658046e-01
3.994117647058823550e-01,4.060474963181148755e-01
4.141176470588235348e-01,6.082563920454546746e-01
4.288235294117647145e-01,7.988683127572016041e-01
4.123529411764705888e-01,5.904243937232525052e-01
0.000000000000000000e+00,-1.000000000000000000e+00
0.000000000000000000e+00,-1.000000000000000000e+00
0.000000000000000000e+00,-1.000000000000000000e+00
0.000000000000000000e+00,-1.000000000000000000e+00
0.000000000000000000e+00,-1.000000000000000000e+00
0.000000000000000000e+00,-1.000000000000000000e+00
0.000000000000000000e+00,-1.000000000000000000e+00
0.000000000000000000e+00,-1.000000000000000000e+00
0.000000000000000000e+00,-1.000000000000000000e+00
0.000000000000000000e+00,-1.000000000000000000e+00
0.000000000000000000e+00,-1.000000000000000000e+00
0.000000000000000000e+00,-1.000000000000000000e+00
0.000000000000000000e+00,-1.000000000000000000e+00
0.000000000000000000e+00,-1.000000000000000000e+00
0.000000000000000000e+00,-1.000000000000000000e+00
0.000000000000000000e+00,-1.000000000000000000e+00
0.000000000000000000e+00,-1.000000000000000000e+00
0.000000000000000000e+00,-1.000000000000000000e+00
0.000000000000000000e+00,-1.000000000000000000e+00
0.000000000000000000e+00,-1.000000000000000000e+00
0.000000000000000000e+00,-1.000000000000000000e+00
1.394117647058823461e-01,-6.002109704641349630e-01
1.435294117647058776e-01,-7.385758196721311508e-01
1.152941176470588247e-01,-1.594387755102011361e-03
1.317647058823529505e-01,-3.404017857142838110e-03
1.517647058823529405e-01,-4.699612403100794644e-03
1.741176470588235159e-01,-6.334459459459429453e-03
2.094117647058823528e-01,-6.750877808988764439e-01
0.000000000000000000e+00,-1.000000000000000000e+00
0.000000000000000000e+00,-1.000000000000000000e+00
0.000000000000000000e+00,-1.000000000000000000e+00
0.000000000000000000e+00,-1.000000000000000000e+00
0.000000000000000000e+00,-1.000000000000000000e+00
0.000000000000000000e+00,-1.000000000000000000e+00
0.000000000000000000e+00,-1.000000000000000000e+00
0.000000000000000000e+00,-1.000000000000000000e+00
0.000000000000000000e+00,-1.000000000000000000e+00
0.000000000000000000e+00,-1.000000000000000000e+00
8.170588235294117263e-01,7.939569834413249261e-01
6.423529411764705710e-01,-3.532509157509156061e-02
7.729411764705882426e-01,-8.962328767123287632e-01
0.000000000000000000e+00,-1.000000000000000000e+00
7.564705882352941169e-01,-8.992223950233281249e-01
8.247058823529411775e-01,-5.726194721825963452e-01
8.000000000000000444e-01,-2.194577205882353166e-01
8.005882352941176006e-01,1.322786554004409254e-01
1.717647058823529305e-01,-6.403467465753425181e-01
1.911764705882352811e-01,-6.738653846153845883e-01
2.123529411764705777e-01,-7.091412742382271484e-01
0.000000000000000000e+00,-1.000000000000000000e+00
2.182352941176470551e-01,-7.667452830188679069e-01
2.217647058823529471e-01,-9.367208222811671536e-01
5.999999999999999778e-02,-9.844362745098038658e-01
0.000000000000000000e+00,-1.000000000000000000e+00
0.000000000000000000e+00,-1.000000000000000000e+00
0.000000000000000000e+00,-1.000000000000000000e+00
0.000000000000000000e+00,-1.000000000000000000e+00
0.000000000000000000e+00,-1.000000000000000000e+00
0.000000000000000000e+00,-1.000000000000000000e+00
0.000000000000000000e+00,-1.000000000000000000e+00
9.988235294117646657e-01,3.839038574793876002e-01
1.026470588235294024e+00,-4.792406876790831216e-01
9.664705882352940813e-01,2.499239196591600543e-01
1.947058823529411731e-01,9.675604229607253082e-01
0.000000000000000000e+00,-1.000000000000000000e+00
0.000000000000000000e+00,-1.000000000000000000e+00
1.847058823529411642e-01,9.682125796178344679e-01
1.797647058823529376e+00,5.346776832460733431e-01
