1.029411764705882304e-01,2.137499999999998845e-01
0.000000000000000000e+00,-1.000000000000000000e+00
0.000000000000000000e+00,-1.000000000000000000e+00
0.000000000000000000e+00,-1.000000000000000000e+00
0.000000000000000000e+00,-1.000000000000000000e+00
0.000000000000000000e+00,-1.000000000000000000e+00
0.000000000000000000e+00,-1.000000000000000000e+00
0.000000000000000000e+00,-1.000000000000000000e+00
0.000000000000000000e+00,-1.000000000000000000e+00
0.000000000000000000e+00,-1.000000000000000000e+00
0.000000000000000000e+00,-1.000000000000000000e+00
0.000000000000000000e+00,-1.000000000000000000e+00
0.000000000000000000e+00,-1.000000000000000000e+00
0.000000000000000000e+00,-1.000000000000000000e+00
0.000000000000000000e+00,-1.000000000000000000e+00
0.000000000000000000e+00,-1.000000000000000000e+00
2.905882352941176472e-01,1.439397773279353920e-01
3.264705882352941235e-01,-9.376351351351350782e-01
1.247058823529411803e-01,-9.761792452830189148e-01
0.000000000000000000e+00,-1.000000000000000000e+00
0.000000000000000000e+00,-1.000000000000000000e+00
0.000000000000000000e+00,-1.000000000000000000e+00
0.000000000000000000e+00,-1.000000000000000000e+00
1.082352941176470545e-01,5.256793478260868291e-01
1.205882352941176489e-01,-7.189329268292683484e-01
0.000000000000000000e+00,-1.000000000000000000e+00
0.000000000000000000e+00,-1.000000000000000000e+00
0.000000000000000000e+00,-1.000000000000000000e+00
0.000000000000000000e+00,-1.000000000000000000e+00
0.000000000000000000e+00,-1.000000000000000000e+00
0.000000000000000000e+00,-1.000000000000000000e+00
0.000000000000000000e+00,-1.000000000000000000e+00
0.000000000000000000e+00,-1.000000000000000000e+00
0.000000000000000000e+00,-1.000000000000000000e+00
0.000000000000000000e+00,-1.000000000000000000e+00
0.000000000000000000e+00,-1.000000000000000000e+00
0.000000000000000000e+00,-1.000000000000000000e+00
0.000000000000000000e+00,-1.000000000000000000e+00
0.000000000000000000e+00,-1.000000000000000000e+00
0.000000000000000000e+00,-1.000000000000000000e+00
0.000000000000000000e+00,-1.000000000000000000e+00
1.170588235294117707e-01,1.903894472361808976e-01
1.458823529411764630e-01,7.965977822580643242e-01
1.429411764705882382e-01,6.899176954732511025e-01
1.600000000000000033e-01,7.306525735294115975e-01
1.576470588235294179e-01,6.125000000000000444e-01
1.552941176470588325e-01,4.895359848484848175e-01
1.435294117647058776e-01,-1.481557377049179669e-01
1.499999999999999944e-01,4.101960784313725128e-01
1.435294117647058776e-01,-1.860655737704919321e-01
1.499999999999999944e-01,4.101960784313725128e-01
1.735294117647058765e-01,4.342584745762712028e-01
1.964705882352941191e-01,4.622754491017964096e-01
2.264705882352941180e-01,4.938961038961040551e-01
2.288235294117647034e-01,6.285829048843187827e-01
2.347058823529411808e-01,7.627036340852129115e-01
1.876470588235294168e-01,1.205329153605014803e-01
2.082352941176470462e-01,-5.092867231638418257e-01
0.000000000000000000e+00,-1.000000000000000000e+00
2.017647058823529294e-01,-4.288811953352770212e-01
2.382352941176470451e-01,-4.663734567901234307e-01
2.858823529411764763e-01,-5.110082304526748498e-01
3.511764705882353121e-01,-5.647927135678392219e-01
4.382352941176470562e-01,-6.268791946308724938e-01
0.000000000000000000e+00,-1.000000000000000000e+00
0.000000000000000000e+00,-1.000000000000000000e+00
0.000000000000000000e+00,-1.000000000000000000e+00
0.000000000000000000e+00,-1.000000000000000000e+00
0.000000000000000000e+00,-1.000000000000000000e+00
0.000000000000000000e+00,-1.000000000000000000e+00
0.000000000000000000e+00,-1.000000000000000000e+00
0.000000000000000000e+00,-1.000000000000000000e+00
0.000000000000000000e+00,-1.000000000000000000e+00
0.000000000000000000e+00,-1.000000000000000000e+00
0.000000000000000000e+00,-1.000000000000000000e+00
6.282352941176471139e-01,-4.399110486891386618e-01
5.982352941176470873e-01,2.509464110127825887e-01
6.141176470588235459e-01,4.825371168582375248e-01
7.994117647058823772e-01,5.459161147902871214e-01
1.101176470588235201e+00,6.326689369658118345e-01
1.614117647058823435e+00,7.543139577259474482e-01
0.000000000000000000e+00,-1.000000000000000000e+00
0.000000000000000000e+00,-1.000000000000000000e+00
0.000000000000000000e+00,-1.000000000000000000e+00
9.058823529411764996e-02,-6.919642857142856984e-01
7.470588235294117752e-02,-3.981299212598421455e-02
7.588235294117647023e-02,3.696705426356583502e-02
7.588235294117647023e-02,1.153100775193798277e-01
8.352941176470587981e-02,-4.679137323943661775e-01
0.000000000000000000e+00,-1.000000000000000000e+00
0.000000000000000000e+00,-1.000000000000000000e+00
9.529411764705882082e-02,-6.251543209876543328e-01
8.058823529411764108e-02,4.479927007299266961e-02
9.882352941176469896e-02,6.986979166666666963e-01
1.011764705882352983e-01,7.871366279069769156e-01
7.823529411764705566e-02,1.092575187969924144e-01
8.647058823529411853e-02,-4.872448979591836871e-01
9.705882352941176683e-02,-5.111363636363636109e-01
1.047058823529411764e-01,-5.369382022471910210e-01
1.152941176470588247e-01,-5.658801020408164018e-01
1.188235294117647028e-01,-6.695544554455445940e-01
1.199999999999999956e-01,-7.716299019607842924e-01
0.000000000000000000e+00,-1.000000000000000000e+00
0.000000000000000000e+00,-1.000000000000000000e+00
0.000000000000000000e+00,-1.000000000000000000e+00
0.000000000000000000e+00,-1.000000000000000000e+00
0.000000000000000000e+00,-1.000000000000000000e+00
0.000000000000000000e+00,-1.000000000000000000e+00
0.000000000000000000e+00,-1.000000000000000000e+00
0.000000000000000000e+00,-1.000000000000000000e+00
0.000000000000000000e+00,-1.000000000000000000e+00
0.000000000000000000e+00,-1.000000000000000000e+00
0.000000000000000000e+00,-1.000000000000000000e+00
0.000000000000000000e+00,-1.000000000000000000e+00
0.000000000000000000e+00,-1.000000000000000000e+00
0.000000000000000000e+00,-1.000000000000000000e+00
0.000000000000000000e+00,-1.000000000000000000e+00
0.000000000000000000e+00,-1.000000000000000000e+00
1.670588235294117596e-01,9.505281690140843232e-01
2.094117647058823528e-01,7.977703651685392749e-01
2.000000000000000111e-01,6.133088235294117396e-01
1.947058823529411731e-01,4.263406344410876070e-01
1.894117647058823628e-01,2.710791925465838581e-01
2.311764705882352888e-01,2.964694656488551239e-01
2.600000000000000089e-01,3.131504524886878915e-01
2.764705882352941346e-01,-4.978590425531914665e-01
0.000000000000000000e+00,-1.000000000000000000e+00
0.000000000000000000e+00,-1.000000000000000000e+00
0.000000000000000000e+00,-1.000000000000000000e+00
0.000000000000000000e+00,-1.000000000000000000e+00
0.000000000000000000e+00,-1.000000000000000000e+00
0.000000000000000000e+00,-1.000000000000000000e+00
1.388235294117647067e-01,2.560911016949152241e-02
1.929411764705882271e-01,-9.316501524390243816e-01
0.000000000000000000e+00,-1.000000000000000000e+00
0.000000000000000000e+00,-1.000000000000000000e+00
0.000000000000000000e+00,-1.000000000000000000e+00
0.000000000000000000e+00,-1.000000000000000000e+00
0.000000000000000000e+00,-1.000000000000000000e+00
0.000000000000000000e+00,-1.000000000000000000e+00
0.000000000000000000e+00,-1.000000000000000000e+00
0.000000000000000000e+00,-1.000000000000000000e+00
0.000000000000000000e+00,-1.000000000000000000e+00
0.000000000000000000e+00,-1.000000000000000000e+00
0.000000000000000000e+00,-1.000000000000000000e+00
0.000000000000000000e+00,-1.000000000000000000e+00
0.000000000000000000e+00,-1.000000000000000000e+00
0.000000000000000000e+00,-1.000000000000000000e+00
0.000000000000000000e+00,-1.000000000000000000e+00
0.000000000000000000e+00,-1.000000000000000000e+00
1.905882352941176416e-01,3.289158950617283583e-01
1.952941176470588125e-01,5.281061746987951722e-01
2.029411764705882359e-01,7.066304347826086740e-01
2.052941176470588214e-01,8.060530085959887181e-01
1.635294117647058953e-01,-5.573291366906474309e-02
1.629411764705882282e-01,-2.487815884476534123e-01
1.805882352941176605e-01,5.867874592833877134e-01
1.788235294117647145e-01,4.839021381578947345e-01
1.747058823529411831e-01,2.919402356902356388e-01
1.741176470588235159e-01,2.009923986486485958e-01
1.758823529411764619e-01,3.532817725752508409e-01
1.758823529411764619e-01,4.685409698996656491e-01
1.747058823529411831e-01,-4.146043771043770310e-01
1.958823529411764797e-01,-4.372560060060060039e-01
2.394117647058823517e-01,-4.861486486486487069e-01
3.088235294117647189e-01,-5.493452380952381642e-01
3.599999999999999867e-01,-5.928308823529412352e-01
3.482352941176470318e-01,-3.439822635135134643e-01
0.000000000000000000e+00,-1.000000000000000000e+00
3.435294117647058609e-01,-2.920483732876711924e-01
0.000000000000000000e+00,-1.000000000000000000e+00
1.152941176470588247e-01,8.890306122448978776e-01
8.529411764705882582e-02,-6.034482758620618448e-03
8.588235294117646523e-02,1.031678082191782586e-01
8.411764705882353310e-02,3.658216783216783341e-02
1.117647058823529466e-01,-8.830263157894736592e-01
1.288235294117646978e-01,-9.547374429223743908e-01
0.000000000000000000e+00,-1.000000000000000000e+00
0.000000000000000000e+00,-1.000000000000000000e+00
0.000000000000000000e+00,-1.000000000000000000e+00
0.000000000000000000e+00,-1.000000000000000000e+00
1.129411764705882393e-01,3.633463541666666075e-01
1.123529411764705860e-01,2.806937172774870426e-01
1.111764705882352933e-01,1.298611111111109828e-01
1.100000000000000006e-01,4.538770053475937871e-02
1.317647058823529505e-01,4.846540178571423496e-02
1.464705882352941302e-01,5.007530120481940017e-02
1.911764705882352811e-01,-8.567307692307692957e-01
0.000000000000000000e+00,-1.000000000000000000e+00
1.823529411764705788e-01,-7.525403225806451823e-01
1.494117647058823550e-01,2.902805118110236560e-01
1.505882352941176339e-01,1.238037109375000888e-01
1.499999999999999944e-01,-3.585784313725493000e-02
1.494117647058823550e-01,-2.060285433070865313e-01
1.523529411764705799e-01,-3.704391891891891664e-01
1.535294117647058865e-01,4.190134099616857899e-01
0.000000000000000000e+00,-1.000000000000000000e+00
0.000000000000000000e+00,-1.000000000000000000e+00
5.764705882352941235e-02,-5.862882653061224358e-01
0.000000000000000000e+00,-1.000000000000000000e+00
0.000000000000000000e+00,-1.000000000000000000e+00
1.476470588235294090e-01,2.122509960159362219e-01
1.447058823529411842e-01,8.224085365853661678e-02
1.688235294117647056e-01,8.784843205574910385e-02
2.064705882352941280e-01,9.471153846153845812e-02
0.000000000000000000e+00,-1.000000000000000000e+00
0.000000000000000000e+00,-1.000000000000000000e+00
0.000000000000000000e+00,-1.000000000000000000e+00
2.141176470588235237e-01,3.176854395604395975e-01
2.423529411764705765e-01,-6.551425970873786531e-01
0.000000000000000000e+00,-1.000000000000000000e+00
0.000000000000000000e+00,-1.000000000000000000e+00
0.000000000000000000e+00,-1.000000000000000000e+00
2.988235294117647101e-01,-7.911294291338583085e-01
0.000000000000000000e+00,-1.000000000000000000e+00
0.000000000000000000e+00,-1.000000000000000000e+00
0.000000000000000000e+00,-1.000000000000000000e+00
0.000000000000000000e+00,-1.000000000000000000e+00
0.000000000000000000e+00,-1.000000000000000000e+00
0.000000000000000000e+00,-1.000000000000000000e+00
0.000000000000000000e+00,-1.000000000000000000e+00
0.000000000000000000e+00,-1.000000000000000000e+00
0.000000000000000000e+00,-1.000000000000000000e+00
0.000000000000000000e+00,-1.000000000000000000e+00
0.000000000000000000e+00,-1.000000000000000000e+00
0.000000000000000000e+00,-1.000000000000000000e+00
0.000000000000000000e+00,-1.000000000000000000e+00
0.000000000000000000e+00,-1.000000000000000000e+00
0.000000000000000000e+00,-1.000000000000000000e+00
0.000000000000000000e+00,-1.000000000000000000e+00
5.823529411764705871e-02,-5.768308080808079996e-01
5.647058823529411964e-02,5.077473958333333925e-01
5.647058823529411964e-02,-4.958984374999999556e-01
0.000000000000000000e+00,-1.000000000000000000e+00
3.417647058823529149e-01,8.161252151462996540e-01
3.335294117647059076e-01,6.734237213403879707e-01
3.458823529411764741e-01,8.369579081632654294e-01
5.176470588235294185e-02,-4.343749999999999556e-01
5.411764705882352727e-02,5.042798913043478048e-01
5.588235294117647328e-02,-5.675000000000000044e-01
3.035294117647058809e-01,5.905159883720929592e-01
3.158823529411764475e-01,8.393854748603353233e-01
1.817647058823529393e-01,9.564927184466018861e-01
0.000000000000000000e+00,-1.000000000000000000e+00
1.923529411764705876e-01,9.546444954128439075e-01
3.205882352941176738e-01,8.590481651376147276e-01
3.482352941176470318e-01,9.211676520270271062e-01
6.058823529411764414e-02,-4.686893203883495396e-01
0.000000000000000000e+00,-1.000000000000000000e+00
0.000000000000000000e+00,-1.000000000000000000e+00
0.000000000000000000e+00,-1.000000000000000000e+00
0.000000000000000000e+00,-1.000000000000000000e+00
0.000000000000000000e+00,-1.000000000000000000e+00
0.000000000000000000e+00,-1.000000000000000000e+00
2.641176470588235126e-01,3.641703786191536896e-01
3.070588235294117729e-01,-7.082734674329501656e-01
3.705882352941176627e-01,-7.770535714285714546e-01
4.370588235294117774e-01,-8.407637954239569611e-01
4.282352941176470473e-01,-6.937242445054945250e-01
4.176470588235294268e-01,-5.336443661971831398e-01
4.094117647058823639e-01,-2.647359913793103647e-01
1.676470588235293990e-01,9.649561403508772894e-01
5.447058823529411509e-01,6.845639848812095085e-01
5.223529411764705754e-01,3.646889076576576016e-01
5.094117647058823417e-01,2.934468822170899216e-02
7.694117647058823506e-01,3.190940366972472297e-02
7.905882352941175917e-01,4.480747767857142794e-01
6.670588235294118151e-01,9.059909611992946754e-01
0.000000000000000000e+00,-1.000000000000000000e+00
5.317647058823529171e-01,2.538924225663716783e-01
0.000000000000000000e+00,-1.000000000000000000e+00
0.000000000000000000e+00,-1.000000000000000000e+00
0.000000000000000000e+00,-1.000000000000000000e+00
0.000000000000000000e+00,-1.000000000000000000e+00
0.000000000000000000e+00,-1.000000000000000000e+00
0.000000000000000000e+00,-1.000000000000000000e+00
3.905882352941176250e-01,-6.112010542168674343e-01
3.652941176470588247e-01,4.333534621578098989e-01
3.805882352941176716e-01,-5.555834621329212020e-01
0.000000000000000000e+00,-1.000000000000000000e+00
0.000000000000000000e+00,-1.000000000000000000e+00
0.000000000000000000e+00,-1.000000000000000000e+00
0.000000000000000000e+00,-1.000000000000000000e+00
0.000000000000000000e+00,-1.000000000000000000e+00
0.000000000000000000e+00,-1.000000000000000000e+00
0.000000000000000000e+00,-1.000000000000000000e+00
0.000000000000000000e+00,-1.000000000000000000e+00
0.000000000000000000e+00,-1.000000000000000000e+00
0.000000000000000000e+00,-1.000000000000000000e+00
0.000000000000000000e+00,-1.000000000000000000e+00
0.000000000000000000e+00,-1.000000000000000000e+00
0.000000000000000000e+00,-1.000000000000000000e+00
0.000000000000000000e+00,-1.000000000000000000e+00
0.000000000000000000e+00,-1.000000000000000000e+00
9.470588235294118140e-02,4.096273291925465188e-01
9.470588235294118140e-02,3.408773291925464299e-01
1.176470588235294101e-01,-8.213125000000000009e-01
1.141176470588235320e-01,-7.296391752577319201e-01
1.141176470588235320e-01,-5.722615979381443507e-01
1.064705882352941224e-01,4.123273480662983381e-01
1.058823529411764691e-01,3.370486111111110628e-01
1.047058823529411764e-01,2.685393258426966856e-01
1.158823529411764641e-01,-6.164022842639593769e-01
9.588235294117647411e-02,4.800613496932515378e-01
9.764705882352940625e-02,5.643448795180723288e-01
9.764705882352940625e-02,6.312500000000000888e-01
9.764705882352940625e-02,7.119728915662650870e-01
8.411764705882353310e-02,-2.833041958041958575e-01
0.000000000000000000e+00,-1.000000000000000000e+00
1.170588235294117707e-01,3.011934673366833959e-01
1.170588235294117707e-01,3.940012562814070307e-01
1.199999999999999956e-01,5.475796568627451233e-01
1.482352941176470484e-01,8.628968253968252178e-01
0.000000000000000000e+00,-1.000000000000000000e+00
0.000000000000000000e+00,-1.000000000000000000e+00
3.005882352941176561e-01,-1.683586105675146660e-01
0.000000000000000000e+00,-1.000000000000000000e+00
0.000000000000000000e+00,-1.000000000000000000e+00
0.000000000000000000e+00,-1.000000000000000000e+00
0.000000000000000000e+00,-1.000000000000000000e+00
0.000000000000000000e+00,-1.000000000000000000e+00
1.700000000000000122e-01,5.563581314878891515e-01
0.000000000000000000e+00,-1.000000000000000000e+00
0.000000000000000000e+00,-1.000000000000000000e+00
0.000000000000000000e+00,-1.000000000000000000e+00
0.000000000000000000e+00,-1.000000000000000000e+00
0.000000000000000000e+00,-1.000000000000000000e+00
0.000000000000000000e+00,-1.000000000000000000e+00
1.052941176470588297e-01,3.699371508379889484e-01
1.094117647058823473e-01,4.403897849462365954e-01
0.000000000000000000e+00,-1.000000000000000000e+00
0.000000000000000000e+00,-1.000000000000000000e+00
0.000000000000000000e+00,-1.000000000000000000e+00
1.076470588235294151e-01,4.555669398907105094e-01
1.088235294117647078e-01,5.371283783783784571e-01
1.094117647058823473e-01,-5.135080645161289592e-01
1.158823529411764641e-01,6.601205583756346584e-01
0.000000000000000000e+00,-1.000000000000000000e+00
0.000000000000000000e+00,-1.000000000000000000e+00
0.000000000000000000e+00,-1.000000000000000000e+00
0.000000000000000000e+00,-1.000000000000000000e+00
1.235294117647058876e-01,4.642857142857170771e-03
0.000000000000000000e+00,-1.000000000000000000e+00
0.000000000000000000e+00,-1.000000000000000000e+00
0.000000000000000000e+00,-1.000000000000000000e+00
0.000000000000000000e+00,-1.000000000000000000e+00
0.000000000000000000e+00,-1.000000000000000000e+00
5.764705882352941235e-02,4.559311224489797088e-01
6.294117647058823650e-02,-6.177570093457943612e-01
6.470588235294118251e-02,-7.180681818181817722e-01
7.352941176470588480e-02,-7.672999999999999821e-01
6.705882352941176794e-02,5.287280701754384360e-01
9.058823529411764996e-02,-9.766233766233766156e-01
6.823529411764706065e-02,5.964978448275861656e-01
7.058823529411764608e-02,-6.672395833333333304e-01
0.000000000000000000e+00,-1.000000000000000000e+00
0.000000000000000000e+00,-1.000000000000000000e+00
0.000000000000000000e+00,-1.000000000000000000e+00
0.000000000000000000e+00,-1.000000000000000000e+00
0.000000000000000000e+00,-1.000000000000000000e+00
0.000000000000000000e+00,-1.000000000000000000e+00
0.000000000000000000e+00,-1.000000000000000000e+00
0.000000000000000000e+00,-1.000000000000000000e+00
0.000000000000000000e+00,-1.000000000000000000e+00
0.000000000000000000e+00,-1.000000000000000000e+00
0.000000000000000000e+00,-1.000000000000000000e+00
0.000000000000000000e+00,-1.000000000000000000e+00
0.000000000000000000e+00,-1.000000000000000000e+00
0.000000000000000000e+00,-1.000000000000000000e+00
0.000000000000000000e+00,-1.000000000000000000e+00
0.000000000000000000e+00,-1.000000000000000000e+00
7.764705882352941624e-02,3.224905303030303205e-01
0.000000000000000000e+00,-1.000000000000000000e+00
1.511764705882353010e-01,-1.226410505836575959e-01
1.799999999999999933e-01,-1.371732026143790417e-01
2.117647058823529382e-01,-1.496874999999999734e-01
2.476470588235294146e-01,-1.618764845605701330e-01
2.464705882352941080e-01,-3.319361575178997326e-01
2.505882352941176672e-01,-4.783010563380282187e-01
2.541176470588235037e-01,-6.063802083333333925e-01
2.623529411764705666e-01,-7.603279147982062725e-01
2.547058823529411709e-01,-6.354214780600462298e-01
2.535294117647058920e-01,-5.084106728538283493e-01
2.464705882352941080e-01,-3.803699284009546266e-01
2.470588235294117752e-01,-2.504166666666666208e-01
2.552941176470588380e-01,9.412874423963135673e-01
0.000000000000000000e+00,-1.000000000000000000e+00
0.000000000000000000e+00,-1.000000000000000000e+00
0.000000000000000000e+00,-1.000000000000000000e+00
0.000000000000000000e+00,-1.000000000000000000e+00
0.000000000000000000e+00,-1.000000000000000000e+00
1.070588235294117618e-01,9.705700549450551051e-01
3.270588235294117907e-01,8.682216726618705582e-01
0.000000000000000000e+00,-1.000000000000000000e+00
0.000000000000000000e+00,-1.000000000000000000e+00
0.000000000000000000e+00,-1.000000000000000000e+00
0.000000000000000000e+00,-1.000000000000000000e+00
0.000000000000000000e+00,-1.000000000000000000e+00
0.000000000000000000e+00,-1.000000000000000000e+00
0.000000000000000000e+00,-1.000000000000000000e+00
0.000000000000000000e+00,-1.000000000000000000e+00
0.000000000000000000e+00,-1.000000000000000000e+00
0.000000000000000000e+00,-1.000000000000000000e+00
4.529411764705882359e-01,9.547889610389614923e-02
0.000000000000000000e+00,-1.000000000000000000e+00
0.000000000000000000e+00,-1.000000000000000000e+00
0.000000000000000000e+00,-1.000000000000000000e+00
0.000000000000000000e+00,-1.000000000000000000e+00
0.000000000000000000e+00,-1.000000000000000000e+00
1.076470588235294151e-01,5.061133879781420930e-01
1.258823529411764730e-01,-7.996203271028037296e-01
1.288235294117646978e-01,-9.135559360730594047e-01
5.999999999999999778e-02,-9.813112745098039325e-01
0.000000000000000000e+00,-1.000000000000000000e+00
0.000000000000000000e+00,-1.000000000000000000e+00
0.000000000000000000e+00,-1.000000000000000000e+00
0.000000000000000000e+00,-1.000000000000000000e+00
7.764705882352941624e-02,-1.026988636363637131e-01
7.823529411764705566e-02,-4.426691729323306568e-02
0.000000000000000000e+00,-1.000000000000000000e+00
0.000000000000000000e+00,-1.000000000000000000e+00
0.000000000000000000e+00,-1.000000000000000000e+00
0.000000000000000000e+00,-1.000000000000000000e+00
0.000000000000000000e+00,-1.000000000000000000e+00
0.000000000000000000e+00,-1.000000000000000000e+00
0.000000000000000000e+00,-1.000000000000000000e+00
0.000000000000000000e+00,-1.000000000000000000e+00
0.000000000000000000e+00,-1.000000000000000000e+00
0.000000000000000000e+00,-1.000000000000000000e+00
0.000000000000000000e+00,-1.000000000000000000e+00
8.411764705882353310e-02,-8.793269230769230616e-01
6.647058823529411464e-02,3.644358407079646422e-01
7.176470588235293879e-02,3.796106557377050272e-01
7.176470588235293879e-02,3.017930327868851847e-01
7.000000000000000666e-02,2.312499999999999556e-01
7.117647058823529937e-02,1.520661157024794097e-01
0.000000000000000000e+00,-1.000000000000000000e+00
7.117647058823529937e-02,-2.234504132231405205e-01
5.941176470588235142e-02,9.729579207920793227e-01
8.529411764705882582e-02,-4.948275862068973741e-02
8.588235294117646523e-02,3.775684931506839703e-02
8.882352941176470396e-02,-4.673013245033108554e-02
8.941176470588235725e-02,-1.215049342105263275e-01
9.764705882352940625e-02,8.418674698795178823e-01
7.823529411764705566e-02,-3.206296992481203478e-01
8.470588235294117252e-02,-3.372395833333332593e-01
0.000000000000000000e+00,-1.000000000000000000e+00
0.000000000000000000e+00,-1.000000000000000000e+00
0.000000000000000000e+00,-1.000000000000000000e+00
0.000000000000000000e+00,-1.000000000000000000e+00
1.217647058823529416e-01,1.312500000000000888e-01
1.194117647058823561e-01,-4.455049261083732226e-02
0.000000000000000000e+00,-1.000000000000000000e+00
1.064705882352941224e-01,6.760704419889502770e-01
0.000000000000000000e+00,-1.000000000000000000e+00
0.000000000000000000e+00,-1.000000000000000000e+00
0.000000000000000000e+00,-1.000000000000000000e+00
0.000000000000000000e+00,-1.000000000000000000e+00
0.000000000000000000e+00,-1.000000000000000000e+00
0.000000000000000000e+00,-1.000000000000000000e+00
0.000000000000000000e+00,-1.000000000000000000e+00
0.000000000000000000e+00,-1.000000000000000000e+00
0.000000000000000000e+00,-1.000000000000000000e+00
0.000000000000000000e+00,-1.000000000000000000e+00
0.000000000000000000e+00,-1.000000000000000000e+00
0.000000000000000000e+00,-1.000000000000000000e+00
0.000000000000000000e+00,-1.000000000000000000e+00
1.123529411764705888e+00,-8.899181937172775392e-01
1.300000000000000044e-01,4.502828054298642080e-01
1.305882352941176439e-01,5.252815315315315647e-01
0.000000000000000000e+00,-1.000000000000000000e+00
1.452941176470588236e-01,7.343623481781373918e-01
1.741176470588235159e-01,7.969805743243241203e-01
2.076470588235294068e-01,8.600566572237959839e-01
0.000000000000000000e+00,-1.000000000000000000e+00
0.000000000000000000e+00,-1.000000000000000000e+00
4.370588235294117774e-01,-9.196668909825033156e-01
8.058823529411764108e-02,-9.836222627737226665e-01
0.000000000000000000e+00,-1.000000000000000000e+00
0.000000000000000000e+00,-1.000000000000000000e+00
0.000000000000000000e+00,-1.000000000000000000e+00
0.000000000000000000e+00,-1.000000000000000000e+00
0.000000000000000000e+00,-1.000000000000000000e+00
0.000000000000000000e+00,-1.000000000000000000e+00
0.000000000000000000e+00,-1.000000000000000000e+00
0.000000000000000000e+00,-1.000000000000000000e+00
0.000000000000000000e+00,-1.000000000000000000e+00
0.000000000000000000e+00,-1.000000000000000000e+00
0.000000000000000000e+00,-1.000000000000000000e+00
0.000000000000000000e+00,-1.000000000000000000e+00
0.000000000000000000e+00,-1.000000000000000000e+00
0.000000000000000000e+00,-1.000000000000000000e+00
0.000000000000000000e+00,-1.000000000000000000e+00
0.000000000000000000e+00,-1.000000000000000000e+00
7.000000000000000666e-02,-6.201680672268907735e-01
0.000000000000000000e+00,-1.000000000000000000e+00
3.141176470588235570e-01,9.365285580524342901e-01
4.188235294117647056e-01,7.974192415730336769e-01
4.064705882352941391e-01,6.514109985528218072e-01
4.976470588235293868e-01,7.158170803782506475e-01
7.529411764705882248e-01,8.637451171874999112e-01
5.788235294117647367e-01,9.231453252032519874e-01
6.988235294117647323e-01,3.522727272727266268e-02
7.964705882352941524e-01,-8.995614844903988550e-01
0.000000000000000000e+00,-1.000000000000000000e+00
0.000000000000000000e+00,-1.000000000000000000e+00
0.000000000000000000e+00,-1.000000000000000000e+00
0.000000000000000000e+00,-1.000000000000000000e+00
6.229411764705882204e-01,-7.606940509915014470e-01
5.005882352941176672e-01,1.357814336075207073e-01
0.000000000000000000e+00,-1.000000000000000000e+00
0.000000000000000000e+00,-1.000000000000000000e+00
0.000000000000000000e+00,-1.000000000000000000e+00
0.000000000000000000e+00,-1.000000000000000000e+00
0.000000000000000000e+00,-1.000000000000000000e+00
0.000000000000000000e+00,-1.000000000000000000e+00
0.000000000000000000e+00,-1.000000000000000000e+00
0.000000000000000000e+00,-1.000000000000000000e+00
0.000000000000000000e+00,-1.000000000000000000e+00
0.000000000000000000e+00,-1.000000000000000000e+00
0.000000000000000000e+00,-1.000000000000000000e+00
0.000000000000000000e+00,-1.000000000000000000e+00
0.000000000000000000e+00,-1.000000000000000000e+00
0.000000000000000000e+00,-1.000000000000000000e+00
0.000000000000000000e+00,-1.000000000000000000e+00
0.000000000000000000e+00,-1.000000000000000000e+00
2.335294117647058743e-01,-5.764326196473551489e-01
2.764705882352941346e-01,-6.239095744680851485e-01
0.000000000000000000e+00,-1.000000000000000000e+00
0.000000000000000000e+00,-1.000000000000000000e+00
0.000000000000000000e+00,-1.000000000000000000e+00
2.976470588235294312e-01,-7.965044466403161660e-01
2.929411764705882604e-01,-6.783258032128514081e-01
3.517647058823529238e-01,-7.369878762541806072e-01
4.211764705882353188e-01,-8.051239525139665121e-01
3.770588235294117796e-01,-9.291829173166926692e-01
0.000000000000000000e+00,-1.000000000000000000e+00
1.770588235294117685e-01,-9.670888704318937323e-01
3.123529411764706110e-01,9.203154425612058986e-02
3.141176470588235570e-01,2.550561797752810556e-01
3.111764705882352766e-01,1.145912098298675907e-01
0.000000000000000000e+00,-1.000000000000000000e+00
0.000000000000000000e+00,-1.000000000000000000e+00
0.000000000000000000e+00,-1.000000000000000000e+00
0.000000000000000000e+00,-1.000000000000000000e+00
0.000000000000000000e+00,-1.000000000000000000e+00
3.111764705882352766e-01,3.784262759924383879e-02
0.000000000000000000e+00,-1.000000000000000000e+00
0.000000000000000000e+00,-1.000000000000000000e+00
0.000000000000000000e+00,-1.000000000000000000e+00
0.000000000000000000e+00,-1.000000000000000000e+00
1.170588235294117707e-01,-8.951947236180904932e-01
9.117647058823528938e-02,3.026209677419353650e-01
0.000000000000000000e+00,-1.000000000000000000e+00
0.000000000000000000e+00,-1.000000000000000000e+00
0.000000000000000000e+00,-1.000000000000000000e+00
9.588235294117647411e-02,4.930981595092025493e-01
9.470588235294118140e-02,3.342003105590063416e-01
9.235294117647058210e-02,1.832802547770699952e-01
0.000000000000000000e+00,-1.000000000000000000e+00
0.000000000000000000e+00,-1.000000000000000000e+00
0.000000000000000000e+00,-1.000000000000000000e+00
0.000000000000000000e+00,-1.000000000000000000e+00
0.000000000000000000e+00,-1.000000000000000000e+00
1.000000000000000056e-01,1.513235294117647456e-01
0.000000000000000000e+00,-1.000000000000000000e+00
0.000000000000000000e+00,-1.000000000000000000e+00
0.000000000000000000e+00,-1.000000000000000000e+00
0.000000000000000000e+00,-1.000000000000000000e+00
0.000000000000000000e+00,-1.000000000000000000e+00
0.000000000000000000e+00,-1.000000000000000000e+00
0.000000000000000000e+00,-1.000000000000000000e+00
0.000000000000000000e+00,-1.000000000000000000e+00
1.158823529411764641e-01,-4.427982233502538723e-01
1.305882352941176439e-01,-4.695101351351351759e-01
1.341176470588235359e-01,-6.829769736842105088e-01
1.382352941176470673e-01,-8.040957446808509879e-01
1.070588235294117618e-01,-9.672733516483515981e-01
0.000000000000000000e+00,-1.000000000000000000e+00
0.000000000000000000e+00,-1.000000000000000000e+00
0.000000000000000000e+00,-1.000000000000000000e+00
0.000000000000000000e+00,-1.000000000000000000e+00
0.000000000000000000e+00,-1.000000000000000000e+00
0.000000000000000000e+00,-1.000000000000000000e+00
0.000000000000000000e+00,-1.000000000000000000e+00
0.000000000000000000e+00,-1.000000000000000000e+00
0.000000000000000000e+00,-1.000000000000000000e+00
0.000000000000000000e+00,-1.000000000000000000e+00
0.000000000000000000e+00,-1.000000000000000000e+00
1.170588235294117707e-01,-2.433417085427136417e-01
1.199999999999999956e-01,-3.518995098039214842e-01
1.211764705882352883e-01,-4.585558252427184289e-01
1.205882352941176489e-01,-5.361280487804878092e-01
5.823529411764705871e-02,-2.630681818181818121e-01
5.647058823529411964e-02,-1.986328124999999778e-01
6.823529411764706065e-02,7.324353448275862100e-01
8.000000000000000167e-02,7.823069852941177960e-01
6.470588235294118251e-02,-2.300568181818182234e-01
6.588235294117647523e-02,-3.045758928571429269e-01
8.235294117647058709e-02,8.284821428571429447e-01
8.000000000000000167e-02,7.510569852941177960e-01
7.000000000000000666e-02,-3.986344537815125211e-01
7.000000000000000666e-02,-4.631827731092437173e-01
7.352941176470588480e-02,-4.781999999999999584e-01
2.417647058823529371e-01,7.162104622871043880e-01
2.305882352941176494e-01,-6.224808673469387488e-01
2.358823529411764597e-01,-7.505922693266833257e-01
2.405882352941176583e-01,-8.562805623471883010e-01
2.341176470588235414e-01,-7.177920854271356843e-01
2.300000000000000100e-01,-5.910645780051150266e-01
2.811764705882353055e-01,-6.507191422594141850e-01
2.500000000000000000e-01,3.770882352941176130e-01
3.123529411764706110e-01,4.166078154425612023e-01
3.052941176470588269e-01,1.362114643545280224e-01
3.029411764705882137e-01,-3.513349514563102183e-02
9.764705882352940625e-02,9.743975903614459089e-01
0.000000000000000000e+00,-1.000000000000000000e+00
0.000000000000000000e+00,-1.000000000000000000e+00
0.000000000000000000e+00,-1.000000000000000000e+00
0.000000000000000000e+00,-1.000000000000000000e+00
7.411764705882352422e-02,-1.632440476190476497e-01
8.999999999999999667e-02,-7.906862745098038880e-01
7.823529411764705566e-02,4.432330827067669787e-01
7.882352941176470895e-02,5.067630597014924909e-01
7.823529411764705566e-02,5.741541353383459168e-01
8.000000000000000167e-02,6.635569852941176627e-01
7.000000000000000666e-02,-2.971113445378150697e-01
6.823529411764706065e-02,6.068965517241380336e-01
6.764705882352940736e-02,-7.135869565217389798e-02
0.000000000000000000e+00,-1.000000000000000000e+00
0.000000000000000000e+00,-1.000000000000000000e+00
0.000000000000000000e+00,-1.000000000000000000e+00
1.000000000000000056e-01,9.312867647058822307e-01
7.235294117647059209e-02,5.355691056910560910e-02
9.470588235294118140e-02,8.588121118012423949e-01
7.235294117647059209e-02,-1.792174796747968424e-01
7.352941176470588480e-02,-2.548500000000000210e-01
9.470588235294118140e-02,8.588121118012423949e-01
6.941176470588235337e-02,8.898305084745761206e-03
0.000000000000000000e+00,-1.000000000000000000e+00
0.000000000000000000e+00,-1.000000000000000000e+00
0.000000000000000000e+00,-1.000000000000000000e+00
0.000000000000000000e+00,-1.000000000000000000e+00
1.141176470588235320e-01,9.431378865979382908e-01
0.000000000000000000e+00,-1.000000000000000000e+00
0.000000000000000000e+00,-1.000000000000000000e+00
0.000000000000000000e+00,-1.000000000000000000e+00
0.000000000000000000e+00,-1.000000000000000000e+00
0.000000000000000000e+00,-1.000000000000000000e+00
0.000000000000000000e+00,-1.000000000000000000e+00
0.000000000000000000e+00,-1.000000000000000000e+00
0.000000000000000000e+00,-1.000000000000000000e+00
0.000000000000000000e+00,-1.000000000000000000e+00
0.000000000000000000e+00,-1.000000000000000000e+00
0.000000000000000000e+00,-1.000000000000000000e+00
0.000000000000000000e+00,-1.000000000000000000e+00
0.000000000000000000e+00,-1.000000000000000000e+00
0.000000000000000000e+00,-1.000000000000000000e+00
0.000000000000000000e+00,-1.000000000000000000e+00
0.000000000000000000e+00,-1.000000000000000000e+00
1.723529411764705976e-01,-4.164889078498293928e-01
1.723529411764705976e-01,-3.091723549488054612e-01
1.682352941176470662e-01,-1.932910839160838501e-01
1.717647058823529305e-01,-7.159674657534242925e-02
0.000000000000000000e+00,-1.000000000000000000e+00
0.000000000000000000e+00,-1.000000000000000000e+00
0.000000000000000000e+00,-1.000000000000000000e+00
0.000000000000000000e+00,-1.000000000000000000e+00
0.000000000000000000e+00,-1.000000000000000000e+00
1.888235294117646956e-01,1.584112149532710401e-01
1.588235294117646967e-01,-9.640972222222222721e-01
0.000000000000000000e+00,-1.000000000000000000e+00
3.623529411764705999e-01,-8.833299512987012880e-01
0.000000000000000000e+00,-1.000000000000000000e+00
2.335294117647058743e-01,1.936397984886650825e-02
2.688235294117646834e-01,1.957056892778985535e-02
3.158823529411764475e-01,1.965782122905013196e-02
3.876470588235294001e-01,2.012518968133525377e-02
3.900000000000000133e-01,1.842948717948718063e-01
3.982352941176470762e-01,3.752861890694239033e-01
4.029411764705882470e-01,5.366605839416058732e-01
4.794117647058823706e-01,-8.689033742331289112e-01
1.041176470588235231e-01,-9.794138418079095798e-01
0.000000000000000000e+00,-1.000000000000000000e+00
0.000000000000000000e+00,-1.000000000000000000e+00
0.000000000000000000e+00,-1.000000000000000000e+00
1.089411764705882302e+00,-7.287526997840172438e-01
9.452941176470588402e-01,3.765829184816429365e-01
9.788235294117647589e-01,6.831092247596153300e-01
9.870588235294117663e-01,-6.988192789034565200e-01
6.517647058823529127e-01,-9.220103790613718431e-01
1.464705882352941302e-01,-9.785391566265060348e-01
0.000000000000000000e+00,-1.000000000000000000e+00
0.000000000000000000e+00,-1.000000000000000000e+00
0.000000000000000000e+00,-1.000000000000000000e+00
0.000000000000000000e+00,-1.000000000000000000e+00
0.000000000000000000e+00,-1.000000000000000000e+00
0.000000000000000000e+00,-1.000000000000000000e+00
0.000000000000000000e+00,-1.000000000000000000e+00
5.723529411764706198e-01,-9.088129496402878038e-01
1.620588235294117663e+00,2.610322141560799114e-01
0.000000000000000000e+00,-1.000000000000000000e+00
0.000000000000000000e+00,-1.000000000000000000e+00
0.000000000000000000e+00,-1.000000000000000000e+00
0.000000000000000000e+00,-1.000000000000000000e+00
0.000000000000000000e+00,-1.000000000000000000e+00
0.000000000000000000e+00,-1.000000000000000000e+00
0.000000000000000000e+00,-1.000000000000000000e+00
1.505882352941176339e-01,-9.174804687500000000e-01
1.417647058823529316e-01,-9.591545643153527312e-01
0.000000000000000000e+00,-1.000000000000000000e+00
0.000000000000000000e+00,-1.000000000000000000e+00
0.000000000000000000e+00,-1.000000000000000000e+00
0.000000000000000000e+00,-1.000000000000000000e+00
0.000000000000000000e+00,-1.000000000000000000e+00
0.000000000000000000e+00,-1.000000000000000000e+00
1.670588235294117596e-01,-8.359375000000000000e-01
1.635294117647058953e-01,-7.164568345323740761e-01
1.582352941176470573e-01,-6.076905204460966159e-01
0.000000000000000000e+00,-1.000000000000000000e+00
1.529411764705882470e-01,-4.984855769230769340e-01
1.723529411764705976e-01,7.532423208191125763e-01
0.000000000000000000e+00,-1.000000000000000000e+00
0.000000000000000000e+00,-1.000000000000000000e+00
0.000000000000000000e+00,-1.000000000000000000e+00
0.000000000000000000e+00,-1.000000000000000000e+00
0.000000000000000000e+00,-1.000000000000000000e+00
0.000000000000000000e+00,-1.000000000000000000e+00
0.000000000000000000e+00,-1.000000000000000000e+00
0.000000000000000000e+00,-1.000000000000000000e+00
5.123529411764705666e-01,-2.493111366245694960e-01
6.211764705882353299e-01,7.496448863636362425e-01
5.352941176470588092e-01,-4.212225274725274193e-01
0.000000000000000000e+00,-1.000000000000000000e+00
0.000000000000000000e+00,-1.000000000000000000e+00
0.000000000000000000e+00,-1.000000000000000000e+00
0.000000000000000000e+00,-1.000000000000000000e+00
4.017647058823529682e-01,-7.148609077598833128e-02
0.000000000000000000e+00,-1.000000000000000000e+00
4.023529411764705799e-01,-5.896381578947362812e-02
4.082352941176470851e-01,1.580511527377521652e-01
6.305882352941176716e-01,1.919951026119401938e-01
6.294117647058823650e-02,-1.497663551401868798e-01
0.000000000000000000e+00,-1.000000000000000000e+00
7.823529411764705566e-02,7.575187969924823683e-02
0.000000000000000000e+00,-1.000000000000000000e+00
8.352941176470587981e-02,4.319102112676056482e-01
0.000000000000000000e+00,-1.000000000000000000e+00
6.352941176470587592e-02,-3.401620370370370683e-01
6.705882352941176794e-02,-3.516447368421051767e-01
1.000000000000000056e-01,-7.873897058823529083e-01
1.005882352941176450e-01,-8.739035087719297934e-01
8.764705882352941124e-02,5.840604026845637176e-01
0.000000000000000000e+00,-1.000000000000000000e+00
0.000000000000000000e+00,-1.000000000000000000e+00
0.000000000000000000e+00,-1.000000000000000000e+00
0.000000000000000000e+00,-1.000000000000000000e+00
0.000000000000000000e+00,-1.000000000000000000e+00
0.000000000000000000e+00,-1.000000000000000000e+00
0.000000000000000000e+00,-1.000000000000000000e+00
0.000000000000000000e+00,-1.000000000000000000e+00
0.000000000000000000e+00,-1.000000000000000000e+00
0.000000000000000000e+00,-1.000000000000000000e+00
0.000000000000000000e+00,-1.000000000000000000e+00
0.000000000000000000e+00,-1.000000000000000000e+00
0.000000000000000000e+00,-1.000000000000000000e+00
0.000000000000000000e+00,-1.000000000000000000e+00
0.000000000000000000e+00,-1.000000000000000000e+00
0.000000000000000000e+00,-1.000000000000000000e+00
1.017647058823529377e-01,-4.703757225433525813e-01
1.070588235294117618e-01,5.260989010989010062e-01
1.017647058823529377e-01,4.221459537572254117e-01
1.035294117647058837e-01,3.260653409090907839e-01
1.282352941176470584e-01,-8.385321100917431103e-01
1.258823529411764730e-01,-7.410922897196261516e-01
1.441176470588235170e-01,-7.953571428571428736e-01
1.258823529411764730e-01,4.573890186915887668e-01
1.376470588235294001e-01,4.790064102564102200e-01
1.564705882352941113e-01,5.097744360902256577e-01
1.729411764705882371e-01,-6.981292517006802978e-01
0.000000000000000000e+00,-1.000000000000000000e+00
0.000000000000000000e+00,-1.000000000000000000e+00
0.000000000000000000e+00,-1.000000000000000000e+00
1.288235294117646978e-01,1.888127853881278462e-01
1.452941176470588236e-01,1.976214574898784715e-01
1.594117647058823639e-01,2.095710332103322138e-01
1.841176470588235248e-01,2.220646964856229921e-01
1.858823529411764708e-01,3.513449367088608000e-01
1.841176470588235248e-01,2.206269968051119967e-01
0.000000000000000000e+00,-1.000000000000000000e+00
1.841176470588235248e-01,2.977635782747602988e-01
0.000000000000000000e+00,-1.000000000000000000e+00
7.529411764705881693e-02,2.372070312500000888e-01
0.000000000000000000e+00,-1.000000000000000000e+00
0.000000000000000000e+00,-1.000000000000000000e+00
7.941176470588234837e-02,2.076851851851853059e-01
7.764705882352941624e-02,2.839488636363636243e-01
0.000000000000000000e+00,-1.000000000000000000e+00
0.000000000000000000e+00,-1.000000000000000000e+00
0.000000000000000000e+00,-1.000000000000000000e+00
0.000000000000000000e+00,-1.000000000000000000e+00
0.000000000000000000e+00,-1.000000000000000000e+00
0.000000000000000000e+00,-1.000000000000000000e+00
2.811764705882353055e-01,-4.159518828451882477e-01
3.094117647058823306e-01,6.534220532319392483e-01
0.000000000000000000e+00,-1.000000000000000000e+00
1.199999999999999956e-01,-1.228247549019607643e-01
1.205882352941176489e-01,-2.725609756097568948e-02
1.217647058823529416e-01,-1.084239130434783149e-01
1.199999999999999956e-01,-2.076593137254901800e-01
1.223529411764705949e-01,-3.310697115384615419e-01
1.317647058823529505e-01,-3.475167410714286031e-01
1.064705882352941224e-01,9.650207182320442723e-01
7.000000000000000666e-02,-1.183823529411764941e-01
0.000000000000000000e+00,-1.000000000000000000e+00
7.411764705882352422e-02,-3.587797619047619069e-01
0.000000000000000000e+00,-1.000000000000000000e+00
0.000000000000000000e+00,-1.000000000000000000e+00
0.000000000000000000e+00,-1.000000000000000000e+00
0.000000000000000000e+00,-1.000000000000000000e+00
8.058823529411764108e-02,-3.556569343065694166e-01
9.882352941176469896e-02,8.317336309523810645e-01
0.000000000000000000e+00,-1.000000000000000000e+00
8.941176470588235725e-02,9.618832236842105310e-01
0.000000000000000000e+00,-1.000000000000000000e+00
0.000000000000000000e+00,-1.000000000000000000e+00
0.000000000000000000e+00,-1.000000000000000000e+00
0.000000000000000000e+00,-1.000000000000000000e+00
0.000000000000000000e+00,-1.000000000000000000e+00
0.000000000000000000e+00,-1.000000000000000000e+00
0.000000000000000000e+00,-1.000000000000000000e+00
0.000000000000000000e+00,-1.000000000000000000e+00
0.000000000000000000e+00,-1.000000000000000000e+00
0.000000000000000000e+00,-1.000000000000000000e+00
0.000000000000000000e+00,-1.000000000000000000e+00
1.058823529411764691e-01,1.218750000000001776e-02
1.064705882352941224e-01,-8.850138121546957670e-02
1.070588235294117618e-01,-1.878777472527473069e-01
1.082352941176470545e-01,-2.814538043478260754e-01
1.070588235294117618e-01,-3.779189560439559781e-01
1.211764705882352883e-01,-4.019720873786407633e-01
1.341176470588235359e-01,-4.197916666666666741e-01
1.470588235294117696e-01,6.222999999999998533e-01
0.000000000000000000e+00,-1.000000000000000000e+00
0.000000000000000000e+00,-1.000000000000000000e+00
0.000000000000000000e+00,-1.000000000000000000e+00
0.000000000000000000e+00,-1.000000000000000000e+00
0.000000000000000000e+00,-1.000000000000000000e+00
0.000000000000000000e+00,-1.000000000000000000e+00
0.000000000000000000e+00,-1.000000000000000000e+00
1.488235294117647156e-01,-4.410573122529644063e-01
2.841176470588235303e-01,-6.977225672877851448e-02
3.482352941176470318e-01,7.378272804054053502e-01
2.864705882352941435e-01,9.363321355236138288e-01
5.352941176470588092e-02,9.818681318681317105e-01
0.000000000000000000e+00,-1.000000000000000000e+00
0.000000000000000000e+00,-1.000000000000000000e+00
0.000000000000000000e+00,-1.000000000000000000e+00
0.000000000000000000e+00,-1.000000000000000000e+00
0.000000000000000000e+00,-1.000000000000000000e+00
7.358823529411764319e-01,5.332234212629896053e-01
6.694117647058823728e-01,-1.648835676625658442e-01
6.682352941176470384e-01,1.319707306338027131e-01
9.517647058823529571e-01,1.542104449938195287e-01
1.217647058823529416e-01,5.006642512077295049e-01
1.364705882352941213e-01,5.307650862068966635e-01
1.352941176470588147e-01,4.113315217391304568e-01
1.323529411764705899e-01,2.933611111111109615e-01
1.770588235294117685e-01,9.338870431893688817e-01
0.000000000000000000e+00,-1.000000000000000000e+00
0.000000000000000000e+00,-1.000000000000000000e+00
0.000000000000000000e+00,-1.000000000000000000e+00
0.000000000000000000e+00,-1.000000000000000000e+00
0.000000000000000000e+00,-1.000000000000000000e+00
0.000000000000000000e+00,-1.000000000000000000e+00
0.000000000000000000e+00,-1.000000000000000000e+00
0.000000000000000000e+00,-1.000000000000000000e+00
0.000000000000000000e+00,-1.000000000000000000e+00
1.858823529411764708e-01,-4.046677215189873333e-01
1.729411764705882371e-01,1.677508503401361484e-01
2.376470588235294057e-01,9.237933168316831978e-01
0.000000000000000000e+00,-1.000000000000000000e+00
0.000000000000000000e+00,-1.000000000000000000e+00
0.000000000000000000e+00,-1.000000000000000000e+00
0.000000000000000000e+00,-1.000000000000000000e+00
0.000000000000000000e+00,-1.000000000000000000e+00
0.000000000000000000e+00,-1.000000000000000000e+00
0.000000000000000000e+00,-1.000000000000000000e+00
0.000000000000000000e+00,-1.000000000000000000e+00
0.000000000000000000e+00,-1.000000000000000000e+00
0.000000000000000000e+00,-1.000000000000000000e+00
0.000000000000000000e+00,-1.000000000000000000e+00
0.000000000000000000e+00,-1.000000000000000000e+00
0.000000000000000000e+00,-1.000000000000000000e+00
0.000000000000000000e+00,-1.000000000000000000e+00
0.000000000000000000e+00,-1.000000000000000000e+00
0.000000000000000000e+00,-1.000000000000000000e+00
6.705882352941176794e-02,3.121710526315788492e-01
7.647058823529412352e-02,9.637499999999998845e-01
6.411764705882352922e-02,2.877293577981652195e-01
6.470588235294118251e-02,2.074431818181818876e-01
6.588235294117647523e-02,1.228794642857142794e-01
6.705882352941176794e-02,4.018640350877200618e-02
7.058823529411764608e-02,4.062499999999991118e-02
7.764705882352941624e-02,4.166666666666651864e-02
8.588235294117646523e-02,4.332191780821914584e-02
1.035294117647058837e-01,6.688210227272726183e-01
1.041176470588235231e-01,7.655720338983051931e-01
1.035294117647058837e-01,6.653053977272727071e-01
8.647058823529411853e-02,-4.715136054421764644e-02
8.647058823529411853e-02,-1.416666666666666075e-01
8.705882352941175795e-02,-2.303631756756756577e-01
8.999999999999999667e-02,3.616421568627452565e-01
0.000000000000000000e+00,-1.000000000000000000e+00
0.000000000000000000e+00,-1.000000000000000000e+00
0.000000000000000000e+00,-1.000000000000000000e+00
0.000000000000000000e+00,-1.000000000000000000e+00
0.000000000000000000e+00,-1.000000000000000000e+00
0.000000000000000000e+00,-1.000000000000000000e+00
0.000000000000000000e+00,-1.000000000000000000e+00
0.000000000000000000e+00,-1.000000000000000000e+00
1.029411764705882304e-01,-3.858214285714285374e-01
1.147058823529411714e-01,-4.066987179487180359e-01
1.300000000000000044e-01,-4.325791855203620084e-01
1.276470588235294190e-01,-3.248271889400922152e-01
1.252941176470588336e-01,-2.152288732394366244e-01
1.435294117647058776e-01,-2.287397540983606703e-01
1.605882352941176427e-01,-2.438873626373626591e-01
1.629411764705882282e-01,3.127933212996389933e-01
6.176470588235294379e-02,9.773809523809524613e-01
0.000000000000000000e+00,-1.000000000000000000e+00
0.000000000000000000e+00,-1.000000000000000000e+00
0.000000000000000000e+00,-1.000000000000000000e+00
0.000000000000000000e+00,-1.000000000000000000e+00
0.000000000000000000e+00,-1.000000000000000000e+00
0.000000000000000000e+00,-1.000000000000000000e+00
0.000000000000000000e+00,-1.000000000000000000e+00
0.000000000000000000e+00,-1.000000000000000000e+00
0.000000000000000000e+00,-1.000000000000000000e+00
0.000000000000000000e+00,-1.000000000000000000e+00
0.000000000000000000e+00,-1.000000000000000000e+00
0.000000000000000000e+00,-1.000000000000000000e+00
0.000000000000000000e+00,-1.000000000000000000e+00
0.000000000000000000e+00,-1.000000000000000000e+00
0.000000000000000000e+00,-1.000000000000000000e+00
0.000000000000000000e+00,-1.000000000000000000e+00
0.000000000000000000e+00,-1.000000000000000000e+00
0.000000000000000000e+00,-1.000000000000000000e+00
0.000000000000000000e+00,-1.000000000000000000e+00
0.000000000000000000e+00,-1.000000000000000000e+00
0.000000000000000000e+00,-1.000000000000000000e+00
0.000000000000000000e+00,-1.000000000000000000e+00
0.000000000000000000e+00,-1.000000000000000000e+00
0.000000000000000000e+00,-1.000000000000000000e+00
0.000000000000000000e+00,-1.000000000000000000e+00
6.058823529411764275e-01,-9.116686893203883590e-01
5.258823529411764675e-01,-1.076901565995525001e-01
6.435294117647059053e-01,7.204810329067641295e-01
2.064705882352941280e-01,9.609864672364671900e-01
0.000000000000000000e+00,-1.000000000000000000e+00
0.000000000000000000e+00,-1.000000000000000000e+00
0.000000000000000000e+00,-1.000000000000000000e+00
0.000000000000000000e+00,-1.000000000000000000e+00
0.000000000000000000e+00,-1.000000000000000000e+00
0.000000000000000000e+00,-1.000000000000000000e+00
0.000000000000000000e+00,-1.000000000000000000e+00
0.000000000000000000e+00,-1.000000000000000000e+00
0.000000000000000000e+00,-1.000000000000000000e+00
0.000000000000000000e+00,-1.000000000000000000e+00
0.000000000000000000e+00,-1.000000000000000000e+00
0.000000000000000000e+00,-1.000000000000000000e+00
5.882352941176470507e-02,-5.108749999999999680e-01
5.294117647058823456e-02,1.730555555555555181e-01
0.000000000000000000e+00,-1.000000000000000000e+00
0.000000000000000000e+00,-1.000000000000000000e+00
1.247058823529411803e-01,-9.639150943396226356e-01
1.600000000000000033e-01,-8.374540441176470118e-01
1.158823529411764641e-01,-9.668464467005075669e-01
0.000000000000000000e+00,-1.000000000000000000e+00
0.000000000000000000e+00,-1.000000000000000000e+00
1.058823529411764691e-01,-3.304513888888889195e-01
1.070588235294117618e-01,3.795673076923076206e-01
1.076470588235294151e-01,5.060450819672130951e-01
1.094117647058823473e-01,6.242607526881720492e-01
1.100000000000000006e-01,7.497326203208554141e-01
9.176470588235294268e-02,-1.725961538461537881e-01
8.999999999999999667e-02,-3.000000000000000444e-01
9.352941176470588869e-02,-4.035377358490566113e-01
9.529411764705882082e-02,-5.347993827160493208e-01
8.823529411764706454e-02,2.534166666666666234e-01
0.000000000000000000e+00,-1.000000000000000000e+00
0.000000000000000000e+00,-1.000000000000000000e+00
0.000000000000000000e+00,-1.000000000000000000e+00
7.823529411764705566e-02,3.765977443609023201e-01
7.647058823529412352e-02,-3.290865384615384581e-01
8.117647058823529438e-02,4.560688405797101996e-01
0.000000000000000000e+00,-1.000000000000000000e+00
0.000000000000000000e+00,-1.000000000000000000e+00
7.558823529411764497e-01,-4.265661478599221956e-01
7.435294117647058831e-01,3.349287974683545777e-01
